<?xml version="1.0" encoding="utf-8"?>
<!-- Generator: Adobe Illustrator 23.0.3, SVG Export Plug-In . SVG Version: 6.00 Build 0)  -->
<svg version="1.1" id="Layer_1" xmlns="http://www.w3.org/2000/svg" xmlns:xlink="http://www.w3.org/1999/xlink" x="0px" y="0px"
	 viewBox="0 0 207.43 86.94" style="enable-background:new 0 0 207.43 86.94;" xml:space="preserve">
<style type="text/css">
	.st0{fill:#0064AC;}
	.st1{fill:#1D1C1A;}
	.st2{fill:#E43439;}
	.st3{clip-path:url(#SVGID_2_);fill:#FFFFFF;}
	.st4{fill:#FFFFFF;}
	.st5{clip-path:url(#SVGID_4_);fill:#FFFFFF;}
	.st6{clip-path:url(#SVGID_6_);fill:#FFFFFF;}
	.st7{clip-path:url(#SVGID_8_);fill:#FFFFFF;}
	.st8{clip-path:url(#SVGID_10_);fill:#FFFFFF;}
	.st9{clip-path:url(#SVGID_12_);fill:#FFFFFF;}
	.st10{clip-path:url(#SVGID_14_);fill:#FFFFFF;}
	.st11{clip-path:url(#SVGID_16_);fill:#FFFFFF;}
</style>
<g>
	<path class="st0" d="M97.16,55.01c4.44-0.3,8.18-1.94,11.2-4.93c3.36-3.32,5.03-7.52,5.03-12.59c0-4.62-1.31-8.58-4.13-11.74
		c-0.08-0.09-0.22-0.16-0.36-0.16c-0.25,0-0.46,0.2-0.46,0.46c0,0.04,0.01,0.09,0.02,0.12c2.08,5.59,0.87,11.2-2.8,12.69
		c-2.57,1.04-5.69-0.22-8.14-2.94c-0.19-0.18-0.5-0.19-0.69-0.01c-0.17,0.17-0.19,0.43-0.04,0.62c0,0,0.05,0.06,0.05,0.06
		c2.12,2.39,3.2,5.36,3.2,8.85c0,3.48-1.07,6.4-3.2,8.77c-0.09,0.08-0.15,0.2-0.15,0.33C96.7,54.8,96.91,55.01,97.16,55.01"/>
	<path class="st0" d="M62.78,53.45c-0.37-0.54-0.87-1.34-1.48-2.4c-0.97-1.69-1.73-2.88-2.27-3.56c-0.54-0.68-1.09-1.22-1.65-1.61
		c0.96-0.39,1.86-0.99,2.38-1.78c0.51-0.8,0.77-1.74,0.77-2.83c0-1.6-0.52-2.87-1.57-3.81c-1.05-0.94-2.63-1.41-4.41-1.41h-4.42
		v18.75h2.75v-8.16h0.2c0.82,0,1.41,0.1,1.76,0.3c0.35,0.2,0.74,0.53,1.17,0.99c0.43,0.45,0.91,1.07,1.43,1.84l0.84,1.47l0.78,1.37
		l0.49,0.74c0.08,0.11,0.13,0.18,0.15,0.23l0.77,1.24h3.24L62.78,53.45z M56.3,43.66c-0.43,0.22-1.4,0.32-2.56,0.32h-0.88v-5.4h0.69
		c1.13,0,2.1,0.09,2.59,0.27c0.48,0.18,0.86,0.49,1.13,0.92c0.27,0.44,0.4,0.92,0.4,1.46c0,0.55-0.12,1.03-0.36,1.46
		C57.07,43.13,56.74,43.45,56.3,43.66"/>
	<polygon class="st0" points="66,36.04 75.4,36.04 75.4,38.69 68.78,38.69 68.78,43.42 75.4,43.42 75.4,46.06 68.78,46.06 
		68.78,54.79 66,54.79 	"/>
	<path class="st0" d="M44.48,38.53c-1.81-1.83-4.08-2.75-6.81-2.75c-2.72,0-4.98,0.92-6.76,2.75c-1.78,1.83-2.67,4.15-2.67,6.95
		c0,2.73,0.88,5,2.65,6.81c1.77,1.82,3.98,2.72,6.64,2.72c2.79,0,5.09-0.9,6.92-2.72c1.83-1.81,2.74-4.1,2.74-6.86
		C47.2,42.66,46.29,40.36,44.48,38.53 M42.43,50.5c-1.26,1.37-2.84,2.06-4.73,2.06c-1.88,0-3.45-0.67-4.71-2.02
		c-1.25-1.35-1.88-3.03-1.88-5.06c0-2.09,0.63-3.82,1.87-5.16c1.25-1.35,2.84-2.02,4.78-2.02c1.84,0,3.39,0.68,4.65,2.04
		c1.27,1.36,1.9,3.04,1.9,5.03C44.33,47.42,43.69,49.13,42.43,50.5"/>
	<path class="st0" d="M94.18,38.53c-1.81-1.83-4.08-2.75-6.81-2.75c-2.73,0-4.98,0.92-6.76,2.75c-1.78,1.83-2.67,4.15-2.67,6.95
		c0,2.73,0.88,5,2.66,6.81c1.77,1.82,3.98,2.72,6.64,2.72c2.79,0,5.09-0.9,6.92-2.72c1.83-1.81,2.74-4.1,2.74-6.86
		C96.9,42.66,95.99,40.36,94.18,38.53 M92.13,50.5c-1.26,1.37-2.84,2.06-4.73,2.06c-1.88,0-3.45-0.67-4.7-2.02
		c-1.25-1.35-1.88-3.03-1.88-5.06c0-2.09,0.63-3.82,1.87-5.16c1.25-1.35,2.84-2.02,4.78-2.02c1.84,0,3.4,0.68,4.66,2.04
		c1.27,1.36,1.9,3.04,1.9,5.03C94.03,47.42,93.4,49.13,92.13,50.5"/>
	<path class="st0" d="M25.65,50.5c-1.44,1.37-3.23,2.06-5.38,2.06c-2.14,0-3.92-0.67-5.35-2.02c-1.42-1.35-2.13-3.03-2.13-5.06
		c0-2.09,0.71-3.82,2.13-5.16c1.42-1.35,3.23-2.02,5.43-2.02c2.09,0,3.86,0.68,5.3,2.04c0.01,0.02,0.03,0.03,0.04,0.05v-0.16v-2.62
		v-0.27c-2.26-1.03-4.32-1.54-6.17-1.54c-2.69,0-4.94,0.93-6.78,2.79C10.91,40.45,10,42.75,10,45.48c0,1.72,0.4,3.31,1.2,4.79
		c0.8,1.48,1.88,2.64,3.25,3.48c1.37,0.84,3.04,1.26,5.01,1.26c2.42,0,4.56-0.54,6.41-1.61v-0.26v-2.69v-0.17
		c-0.01,0.01-0.01,0.01-0.02,0.01C25.79,50.36,25.72,50.43,25.65,50.5"/>
	<path class="st0" d="M106.33,31.81c-0.65-0.65-1.45-0.98-2.42-0.98c-0.97,0-1.77,0.33-2.41,0.98c-0.63,0.65-0.95,1.48-0.95,2.47
		c0,0.97,0.31,1.78,0.94,2.42c0.63,0.64,1.42,0.97,2.36,0.97c0.99,0,1.82-0.32,2.46-0.97c0.65-0.64,0.97-1.46,0.97-2.44
		C107.29,33.28,106.97,32.46,106.33,31.81"/>
	<g>
		<path class="st1" d="M12.69,14.86h-1.18v2.81h-0.51v-6.98h1.69c1.33,0,2.43,0.63,2.43,2.03C15.13,14.21,14.03,14.86,12.69,14.86z
			 M12.63,11.12h-1.12v3.29h1.12c1.2,0,1.95-0.49,1.95-1.7C14.58,11.59,13.75,11.12,12.63,11.12z"/>
		<path class="st1" d="M18.41,13.05c-0.12-0.05-0.36-0.09-0.66-0.09c-0.54,0-0.96,0.34-1.25,0.65v4.06h-0.51V12.6h0.33l0.13,0.62
			c0.23-0.27,0.69-0.69,1.34-0.69c0.42,0,0.67,0.09,0.67,0.09L18.41,13.05z"/>
		<path class="st1" d="M20.91,17.77c-1.3,0-2.06-0.93-2.06-2.66c0-1.48,0.64-2.62,2.06-2.62c1.34,0,2.08,1.11,2.08,2.62
			C22.99,16.82,22.19,17.77,20.91,17.77z M20.91,12.89c-1.11,0-1.55,0.9-1.55,2.22c0,1.28,0.37,2.27,1.55,2.27
			c1.14,0,1.56-0.84,1.56-2.27C22.48,13.75,22,12.89,20.91,12.89z"/>
		<path class="st1" d="M25.74,17.67h-0.31l-1.68-5.07h0.55l1.53,4.78l1.52-4.78h0.54l-1.85,5.54c-0.4,1.2-0.96,1.59-1.73,1.59
			c-0.38,0-0.8-0.19-0.99-0.35l0.19-0.34h0.03c0.17,0.11,0.48,0.31,0.8,0.31c0.6,0,0.98-0.34,1.33-1.46L25.74,17.67z"/>
		<path class="st1" d="M28.99,15.28c0,1.47,0.74,2.09,1.76,2.09c0.72,0,1.32-0.36,1.63-0.57l0.17,0.37c-0.43,0.27-1.07,0.6-1.82,0.6
			c-1.31,0-2.22-0.9-2.22-2.68c0-1.63,0.78-2.6,2.09-2.6c1.38,0,1.96,1.15,1.96,2.42v0.36H28.99z M30.55,12.89
			c-1.11,0-1.56,0.99-1.56,1.99h3.05C32.04,13.88,31.69,12.89,30.55,12.89z"/>
		<path class="st1" d="M37.3,17.32c-0.32,0.2-0.91,0.46-1.63,0.46c-1.18,0-2.12-0.7-2.12-2.64c0-1.75,0.94-2.64,2.1-2.64
			c0.53,0,1.17,0.11,1.61,0.39l-0.17,0.38c-0.41-0.25-0.89-0.35-1.45-0.35c-1.01,0-1.61,0.86-1.61,2.21c0,1.55,0.62,2.22,1.63,2.22
			c0.66,0,1.16-0.21,1.52-0.44L37.3,17.32z"/>
		<path class="st1" d="M39.9,17.77c-0.58,0-1.19-0.27-1.19-1.32v-3.48h-0.78V12.6h0.78v-0.94l0.51-0.17v1.11h1.55v0.37h-1.55v3.48
			c0,0.64,0.21,0.91,0.75,0.91c0.31,0,0.68-0.14,0.83-0.23l0.12,0.36C40.77,17.61,40.3,17.77,39.9,17.77z"/>
		<path class="st1" d="M43.5,17.77c-1.3,0-2.06-0.93-2.06-2.66c0-1.48,0.64-2.62,2.06-2.62c1.35,0,2.08,1.11,2.08,2.62
			C45.58,16.82,44.77,17.77,43.5,17.77z M43.5,12.89c-1.11,0-1.55,0.9-1.55,2.22c0,1.28,0.37,2.27,1.55,2.27
			c1.14,0,1.56-0.84,1.56-2.27C45.06,13.75,44.58,12.89,43.5,12.89z"/>
		<path class="st1" d="M52.01,17.67l-0.11-0.68c-0.32,0.39-0.89,0.79-1.6,0.79c-1.04,0-1.6-0.71-1.6-1.52
			c0-0.85,0.62-1.42,1.74-1.42h1.44v-0.48c0-1-0.38-1.45-1.26-1.45c-0.66,0-1.21,0.19-1.55,0.34l-0.14-0.38
			c0.35-0.16,0.91-0.37,1.77-0.37c1.08,0,1.68,0.59,1.68,1.77v3.4H52.01z M51.86,15.23h-1.38c-1,0-1.31,0.43-1.31,1
			c0,0.67,0.37,1.15,1.22,1.15c0.59,0,1.14-0.36,1.47-0.78V15.23z"/>
		<path class="st1" d="M54.14,13.21c0.41-0.42,0.92-0.71,1.54-0.71c1.34,0,1.9,0.95,1.9,2.63c0,1.8-0.82,2.65-2.05,2.65
			c-0.62,0-1.06-0.24-1.44-0.58l0.08,0.61v1.83h-0.51V12.6h0.33L54.14,13.21z M54.18,16.79c0.37,0.36,0.84,0.59,1.36,0.59
			c1.08,0,1.53-0.68,1.53-2.25c0-1.4-0.39-2.21-1.47-2.21c-0.56,0-1.08,0.32-1.42,0.67V16.79z"/>
		<path class="st1" d="M60.65,17.77c-1.3,0-2.06-0.93-2.06-2.66c0-1.48,0.64-2.62,2.06-2.62c1.34,0,2.08,1.11,2.08,2.62
			C62.73,16.82,61.92,17.77,60.65,17.77z M60.65,12.89c-1.11,0-1.55,0.9-1.55,2.22c0,1.28,0.37,2.27,1.55,2.27
			c1.14,0,1.56-0.84,1.56-2.27C62.21,13.75,61.74,12.89,60.65,12.89z"/>
		<path class="st1" d="M65.47,17.67h-0.31l-1.68-5.07h0.55l1.53,4.78l1.52-4.78h0.54l-1.85,5.54c-0.4,1.2-0.96,1.59-1.73,1.59
			c-0.38,0-0.8-0.19-0.99-0.35l0.19-0.34h0.03c0.17,0.11,0.48,0.31,0.8,0.31c0.6,0,0.98-0.34,1.33-1.46L65.47,17.67z"/>
		<path class="st1" d="M71.4,17.67l-0.11-0.68c-0.32,0.39-0.89,0.79-1.6,0.79c-1.04,0-1.6-0.71-1.6-1.52c0-0.85,0.62-1.42,1.74-1.42
			h1.44v-0.48c0-1-0.38-1.45-1.26-1.45c-0.66,0-1.21,0.19-1.55,0.34l-0.14-0.38c0.35-0.16,0.91-0.37,1.77-0.37
			c1.08,0,1.68,0.59,1.68,1.77v3.4H71.4z M71.26,15.23h-1.38c-1,0-1.31,0.43-1.31,1c0,0.67,0.37,1.15,1.22,1.15
			c0.59,0,1.14-0.36,1.47-0.78V15.23z"/>
		<path class="st1" d="M76.47,17.03c-0.33,0.42-0.95,0.75-1.52,0.75c-1.21,0-2.03-0.93-2.03-2.66c0-1.48,0.68-2.62,2.1-2.62
			c0.66,0,1.13,0.22,1.43,0.4l-0.03-0.82v-1.55h0.51v7.14h-0.34L76.47,17.03z M76.41,13.3c-0.26-0.19-0.73-0.41-1.39-0.41
			c-1.11,0-1.59,0.9-1.59,2.22c0,1.28,0.41,2.27,1.53,2.27c0.51,0,0.95-0.22,1.45-0.74V13.3z"/>
		<path class="st1" d="M80.09,17.77c-1.3,0-2.06-0.93-2.06-2.66c0-1.48,0.64-2.62,2.06-2.62c1.34,0,2.08,1.11,2.08,2.62
			C82.17,16.82,81.36,17.77,80.09,17.77z M80.09,12.89c-1.11,0-1.55,0.9-1.55,2.22c0,1.28,0.37,2.27,1.55,2.27
			c1.14,0,1.56-0.84,1.56-2.27C81.65,13.75,81.18,12.89,80.09,12.89z"/>
		<path class="st1" d="M85.94,13.21c0.41-0.42,0.92-0.71,1.54-0.71c1.34,0,1.9,0.95,1.9,2.63c0,1.8-0.82,2.65-2.05,2.65
			c-0.62,0-1.05-0.24-1.44-0.58l0.08,0.61v1.83h-0.51V12.6h0.33L85.94,13.21z M85.98,16.79c0.37,0.36,0.84,0.59,1.36,0.59
			c1.08,0,1.53-0.68,1.53-2.25c0-1.4-0.39-2.21-1.47-2.21c-0.56,0-1.08,0.32-1.42,0.67V16.79z"/>
		<path class="st1" d="M92.45,17.77c-1.3,0-2.06-0.93-2.06-2.66c0-1.48,0.64-2.62,2.06-2.62c1.35,0,2.08,1.11,2.08,2.62
			C94.53,16.82,93.72,17.77,92.45,17.77z M92.45,12.89c-1.11,0-1.55,0.9-1.55,2.22c0,1.28,0.37,2.27,1.55,2.27
			c1.14,0,1.56-0.84,1.56-2.27C94.01,13.75,93.53,12.89,92.45,12.89z"/>
		<path class="st1" d="M98.1,13.05c-0.13-0.05-0.36-0.09-0.66-0.09c-0.54,0-0.96,0.34-1.25,0.65v4.06h-0.51V12.6h0.33l0.13,0.62
			c0.23-0.27,0.69-0.69,1.34-0.69c0.42,0,0.67,0.09,0.67,0.09L98.1,13.05z"/>
	</g>
	<rect x="131.23" y="10.77" class="st0" width="29.33" height="65.18"/>
	<rect x="160.57" y="10.77" class="st2" width="35.86" height="65.18"/>
	<g>
		<defs>
			<rect id="SVGID_1_" x="131.23" y="10.77" width="65.2" height="65.18"/>
		</defs>
		<clipPath id="SVGID_2_">
			<use xlink:href="#SVGID_1_"  style="overflow:visible;"/>
		</clipPath>
		<path class="st3" d="M167.97,20.85c-0.67,0.3-1.19,0.44-1.81,0.44c-1.49,0-2.25-1.04-2.25-2.62c0-1.52,0.76-2.52,2.32-2.52
			c0.75,0,1.25,0.18,1.65,0.44l-0.41,0.74c-0.28-0.19-0.72-0.32-1.22-0.32c-0.9,0-1.31,0.66-1.31,1.65c0,1.18,0.44,1.8,1.3,1.8
			c0.32,0,0.61-0.04,0.84-0.15v-0.93h-0.68l-0.06-0.72h1.64V20.85z"/>
		<path class="st3" d="M171.03,19.39c0-0.87-0.26-1.18-0.71-1.18c-0.45,0-0.7,0.31-0.7,1.18c0,0.85,0.23,1.19,0.7,1.19
			C170.79,20.58,171.03,20.26,171.03,19.39 M172.02,19.39c0,1.24-0.62,1.9-1.7,1.9c-1.09,0-1.7-0.65-1.7-1.9
			c0-1.07,0.59-1.88,1.7-1.88C171.41,17.51,172.02,18.33,172.02,19.39"/>
		<path class="st3" d="M173.71,20.21c0.15,0.2,0.4,0.37,0.66,0.37c0.42,0,0.73-0.31,0.73-1.19c0-0.87-0.27-1.17-0.72-1.17
			c-0.24,0-0.51,0.13-0.68,0.29V20.21z M173.64,17.96c0.16-0.22,0.56-0.44,0.96-0.44c0.85,0,1.47,0.61,1.47,1.88
			c0,1.25-0.74,1.9-1.59,1.9c-0.52,0-0.82-0.2-1.05-0.51l-0.18,0.44h-0.52V16.1h0.97v1.27L173.64,17.96z"/>
	</g>
	<path class="st4" d="M177.07,16.1h0.98v0.88h-0.98V16.1z M177.1,21.22v-2.93l-0.42-0.09v-0.61h1.39v3.63H177.1z"/>
	<g>
		<defs>
			<rect id="SVGID_3_" x="131.23" y="10.77" width="65.2" height="65.18"/>
		</defs>
		<clipPath id="SVGID_4_">
			<use xlink:href="#SVGID_3_"  style="overflow:visible;"/>
		</clipPath>
		<path class="st5" d="M180.46,18.22c-0.48,0-0.68,0.44-0.68,0.87h1.32C181.1,18.62,180.96,18.22,180.46,18.22 M179.78,19.66
			c0,0.58,0.32,0.9,0.93,0.9c0.37,0,0.75-0.14,1.07-0.3l0.19,0.68c-0.3,0.16-0.8,0.36-1.37,0.36c-1.12,0-1.78-0.69-1.78-1.9
			c0-1.12,0.54-1.88,1.7-1.88c1.1,0,1.53,0.81,1.53,1.72v0.42H179.78z"/>
		<path class="st5" d="M184.83,18.39c-0.12-0.04-0.29-0.06-0.45-0.06c-0.26,0-0.49,0.11-0.65,0.24v2.64h-0.96v-3.63h0.67l0.11,0.49
			h0.02c0.11-0.26,0.44-0.56,0.87-0.56c0.19,0,0.34,0.03,0.42,0.05L184.83,18.39z"/>
		<path class="st5" d="M187.67,21.22v-2.16c0-0.55-0.21-0.81-0.65-0.81c-0.25,0-0.47,0.11-0.64,0.22v2.74h-0.97v-3.63h0.67
			l0.15,0.42c0.21-0.24,0.61-0.49,1.15-0.49c0.92,0,1.28,0.54,1.28,1.46v2.24H187.67z"/>
		<path class="st5" d="M191.71,19.39c0-0.87-0.26-1.18-0.71-1.18c-0.45,0-0.7,0.31-0.7,1.18c0,0.85,0.23,1.19,0.7,1.19
			C191.48,20.58,191.71,20.26,191.71,19.39 M192.71,19.39c0,1.24-0.62,1.9-1.7,1.9c-1.09,0-1.7-0.65-1.7-1.9
			c0-1.07,0.59-1.88,1.7-1.88C192.1,17.51,192.71,18.33,192.71,19.39"/>
		<path class="st5" d="M166.28,25c-0.15-0.09-0.38-0.18-0.66-0.18c-0.46,0-0.75,0.31-0.75,1.16c0,0.87,0.27,1.19,0.73,1.19
			c0.25,0,0.49-0.12,0.68-0.31V25z M166.37,24.45c-0.06-0.21-0.09-0.39-0.09-0.67v-1.1h0.96v5.11h-0.79l-0.11-0.4
			c-0.15,0.22-0.5,0.47-0.96,0.47c-0.82,0-1.48-0.59-1.48-1.89c0-1.2,0.68-1.89,1.56-1.89C165.85,24.1,166.17,24.23,166.37,24.45"/>
		<path class="st5" d="M169.63,24.81c-0.48,0-0.68,0.44-0.68,0.87h1.32C170.27,25.21,170.13,24.81,169.63,24.81 M168.95,26.24
			c0,0.58,0.32,0.9,0.93,0.9c0.37,0,0.75-0.14,1.07-0.3l0.19,0.68c-0.3,0.16-0.8,0.36-1.37,0.36c-1.12,0-1.79-0.7-1.79-1.9
			c0-1.12,0.54-1.88,1.7-1.88c1.1,0,1.53,0.81,1.53,1.72v0.42H168.95z"/>
		<path class="st5" d="M175.62,27.87c-1.41,0-2.16-0.93-2.16-2.6c0-1.55,0.75-2.55,2.16-2.55c0.68,0,1.3,0.15,1.7,0.42l-0.37,0.79
			c-0.26-0.2-0.71-0.35-1.23-0.35c-0.83,0-1.25,0.58-1.25,1.68c0,1.15,0.41,1.75,1.23,1.75c0.49,0,0.98-0.21,1.32-0.46l0.31,0.79
			C176.84,27.68,176.28,27.87,175.62,27.87"/>
		<path class="st5" d="M177.99,27.8v-5.11h0.97v1.34c0,0.25-0.05,0.45-0.1,0.56c0.2-0.25,0.53-0.5,1.05-0.5
			c1.04,0,1.33,0.54,1.33,1.46v2.24h-0.99v-2.16c0-0.52-0.21-0.8-0.65-0.8c-0.25,0-0.48,0.11-0.65,0.22v2.74H177.99z"/>
	</g>
	<path class="st4" d="M182.29,22.69h0.98v0.88h-0.98V22.69z M182.32,27.8v-2.93l-0.42-0.09v-0.61h1.39v3.63H182.32z"/>
	<g>
		<defs>
			<rect id="SVGID_5_" x="131.23" y="10.77" width="65.2" height="65.18"/>
		</defs>
		<clipPath id="SVGID_6_">
			<use xlink:href="#SVGID_5_"  style="overflow:visible;"/>
		</clipPath>
		<path class="st6" d="M184.17,26.84v-4.15h0.96v4.09c0,0.3,0.19,0.35,0.59,0.35v0.68c0,0-0.28,0.06-0.53,0.06
			C184.44,27.87,184.17,27.48,184.17,26.84"/>
		<path class="st6" d="M187.85,24.81c-0.48,0-0.68,0.44-0.68,0.87h1.32C188.5,25.21,188.36,24.81,187.85,24.81 M187.17,26.24
			c0,0.58,0.32,0.9,0.93,0.9c0.37,0,0.75-0.14,1.06-0.3l0.19,0.68c-0.31,0.16-0.8,0.36-1.37,0.36c-1.12,0-1.78-0.7-1.78-1.9
			c0-1.12,0.54-1.88,1.7-1.88c1.09,0,1.53,0.81,1.53,1.72v0.42H187.17z"/>
		<path class="st6" d="M165.6,70.81c0-0.33-0.28-0.41-0.49-0.41c-0.21,0-0.5,0.09-0.5,0.41c0,0.35,0.27,0.43,0.5,0.43
			C165.33,71.24,165.6,71.16,165.6,70.81 M165,72.53c-0.26,0.02-0.42,0.17-0.42,0.41c0,0.24,0.22,0.42,0.52,0.42
			c0.33,0,0.55-0.17,0.55-0.46C165.65,72.66,165.44,72.57,165,72.53 M166.51,69.93l-0.01,0.55c-0.13-0.01-0.33-0.04-0.52-0.1
			c0.13,0.11,0.25,0.25,0.28,0.43c0,0.68-0.67,0.94-1.14,0.94c-0.11,0-0.24-0.02-0.36-0.05c-0.08,0.03-0.13,0.08-0.13,0.15
			c0,0.3,1.75-0.05,1.75,0.98c0,0.65-0.62,1-1.31,1c-0.58,0-1.17-0.25-1.17-0.76c0-0.36,0.28-0.54,0.73-0.61
			c-0.34-0.04-0.69-0.15-0.69-0.47c0-0.23,0.21-0.4,0.52-0.42c-0.28-0.15-0.49-0.38-0.49-0.78c0-0.73,0.69-0.94,1.14-0.94
			C165.41,69.87,166.03,69.93,166.51,69.93"/>
		<path class="st6" d="M168.71,71.3c0-0.66-0.2-0.89-0.54-0.89c-0.34,0-0.54,0.24-0.54,0.89c0,0.64,0.18,0.9,0.54,0.9
			C168.53,72.21,168.71,71.96,168.71,71.3 M169.46,71.3c0,0.94-0.47,1.44-1.3,1.44c-0.83,0-1.29-0.5-1.29-1.44
			c0-0.81,0.45-1.43,1.29-1.43C169,69.87,169.46,70.49,169.46,71.3"/>
		<path class="st6" d="M170.75,71.92c0.11,0.15,0.3,0.28,0.5,0.28c0.32,0,0.56-0.24,0.56-0.9c0-0.66-0.21-0.89-0.55-0.89
			c-0.19,0-0.39,0.1-0.51,0.22V71.92z M170.69,70.21c0.13-0.17,0.42-0.34,0.73-0.34c0.65,0,1.12,0.46,1.12,1.43
			c0,0.95-0.56,1.44-1.21,1.44c-0.39,0-0.62-0.15-0.8-0.39l-0.13,0.33h-0.39v-3.88h0.74v0.96L170.69,70.21z"/>
	</g>
	<rect x="173.01" y="71.9" class="st4" width="0.74" height="0.79"/>
	<g>
		<defs>
			<rect id="SVGID_7_" x="131.23" y="10.77" width="65.2" height="65.18"/>
		</defs>
		<clipPath id="SVGID_8_">
			<use xlink:href="#SVGID_7_"  style="overflow:visible;"/>
		</clipPath>
		<path class="st7" d="M176.53,72.5c-0.16,0.09-0.53,0.24-0.95,0.24c-0.82,0-1.32-0.47-1.32-1.44c0-0.9,0.5-1.44,1.31-1.44
			c0.37,0,0.68,0.07,0.94,0.23l-0.19,0.5c-0.19-0.12-0.45-0.17-0.69-0.17c-0.38,0-0.63,0.26-0.63,0.88c0,0.63,0.23,0.88,0.63,0.88
			c0.29,0,0.57-0.11,0.75-0.21L176.53,72.5z"/>
		<path class="st7" d="M177.02,71.96v-3.15h0.73v3.11c0,0.23,0.14,0.26,0.45,0.26v0.52c0,0-0.21,0.04-0.41,0.04
			C177.23,72.75,177.02,72.45,177.02,71.96"/>
		<path class="st7" d="M148.59,23.72v1.02C148.77,24.3,148.69,23.95,148.59,23.72"/>
		<path class="st7" d="M150.72,17.76c-0.04,0.09-0.17,0.09-0.19,0.21C150.42,17.86,150.63,17.64,150.72,17.76 M151.42,17.72
			c0.1-0.06,0.18-0.25,0.33-0.16c0.07,0.04,0.14,0.11,0.21,0.16s0.16,0.1,0.2,0.18c0.04,0.09-0.07,0.3-0.21,0.11
			c-0.09-0.14-0.21-0.39-0.4-0.29c-0.16,0.08-0.27,0.19-0.31,0.09C151.23,17.75,151.36,17.75,151.42,17.72 M151.44,17.88
			c0.06-0.07,0.08,0.25,0.34,0.16C151.59,18.25,151.35,18.03,151.44,17.88 M150.58,18.22c0.03-0.01-0.01-0.14,0.12-0.15
			c0.12-0.01,0.3,0.1,0.32,0.21c0.03,0.13-0.08,0.44,0.33,0.49c0,0,0,0.06-0.01,0.13c-0.01,0.07-0.03,0.15-0.06,0.22
			c0.03,0,0.05,0,0.08,0c0.55,0.03,0.86-0.02,1.02-0.18c0,0,0.1-0.1,0.14-0.2c0.14-0.29,0.16-0.55,0.08-0.76h0
			c0-0.01-0.01-0.03-0.01-0.04c-0.01-0.03-0.02-0.05-0.04-0.07c-0.12-0.22-0.44-0.5-0.84-0.63c-0.03-0.01-0.05-0.01-0.08-0.01
			c0,0-0.01,0-0.01,0s0.01-0.01,0.02-0.01h0h0c0.01,0,0.09,0,0.09,0c0.3,0.04,0.79,0.33,0.89,0.63c0.1-0.06,0.18-0.23,0.2-0.37h0
			c0.01-0.03-0.01-0.21,0.07-0.37c0.02-0.05,0-0.1-0.04-0.12c-0.04-0.02-0.1,0-0.12,0.05c-0.08,0.15-0.25,0.07-0.17-0.08
			c0.02-0.05,0-0.1-0.04-0.12c-0.04-0.02-0.1,0-0.12,0.04c-0.07,0.15-0.24,0.06-0.17-0.08c0.02-0.05,0-0.1-0.04-0.12
			c-0.04-0.02-0.1,0-0.12,0.05c-0.07,0.15-0.24,0.07-0.17-0.09c0.02-0.05,0-0.1-0.04-0.12c-0.04-0.02-0.1,0-0.12,0.05
			c-0.06,0.11-0.1,0.18-0.15,0.23c0.33,0.07,0.68,0.25,0.9,0.48c0,0,0.09,0.1,0.1,0.12h0h0c0.01,0.02,0.01,0.03,0.01,0.03
			c0,0.01-0.01,0-0.01,0c-0.03-0.04-0.07-0.07-0.11-0.1c-0.37-0.31-0.69-0.43-0.96-0.47c-0.18,0.02-0.13,0.22-0.11,0.35
			c-0.3-0.06-0.53,0.16-0.54,0.36c0,0.08,0.01,0.16,0.06,0.24c0,0,0,0.01,0,0.01c-0.01,0.01-0.06-0.03-0.08-0.09
			c-0.02-0.05-0.03-0.1-0.04-0.15c-0.24,0.01-0.47,0.14-0.45,0.37C150.37,18.05,150.52,18.21,150.58,18.22"/>
		<path class="st7" d="M157.25,28.55c-0.17-0.2-0.61-0.1-0.61-0.1c0.24-0.71-0.42-0.91-0.42-0.91c-0.24-0.06-0.39-0.02-0.49,0.05
			c0,0-0.01,0-0.01,0c0,0,0,0.01-0.01,0.01c-0.02,0.01-0.03,0.02-0.05,0.04c-0.06,0.06-0.1,0.14-0.1,0.24
			c0,0.19,0.15,0.34,0.35,0.34c0.07,0,0.14-0.02,0.2-0.06c0.07-0.05,0.12-0.12,0.14-0.2c0.09,0.06,0.13,0.16,0.13,0.16
			c0.19,0.61-0.49,0.83-0.49,0.83c-1.51,0.45-2.44-0.33-2.44-0.33l0.26-0.14c0.09-0.04,0.18-0.05,0.24-0.05c0,0.01,0,0.03,0,0.04
			c0,0.17,0.13,0.3,0.3,0.3c0.17,0,0.3-0.13,0.3-0.3c0-0.05-0.01-0.1-0.04-0.15l0,0c-0.01-0.02-0.02-0.03-0.02-0.03
			c-0.18-0.27-0.79-0.09-0.79-0.09c0.2-0.5,0.02-0.86,0.02-0.86c-0.11-0.19-0.09-0.26-0.09-0.26c0-0.18-0.04-0.2-0.04-0.2
			c-0.09-0.13-0.26-0.06-0.26-0.06c-0.24,0.05-0.3-0.05-0.3-0.05c-0.21-0.14-0.29-0.06-0.29-0.06c-0.09,0.06,0.03,0.21,0.03,0.21
			c-0.22,0-0.28,0.28-0.28,0.28c-0.09,0.46,0.29,0.5,0.29,0.5c0.27,0.01,0.27-0.21,0.27-0.21c0.04-0.21-0.27-0.22-0.27-0.22
			c0.05-0.13,0.15-0.12,0.15-0.12c0.32-0.08,0.46,0.28,0.46,0.28c0.25,0.4-0.07,0.78-0.07,0.78c-0.05,0.06-0.11,0.02-0.11,0.02
			c-0.18-0.08-0.43-0.27-0.43-0.27c-0.01-0.01-0.02-0.01-0.03-0.02h-0.1c-0.12,0-0.25,0.04-0.33,0.07c0.12,0.13,0.52,0.46,0.52,0.46
			c-0.3,0.24-0.47,0.07-0.47,0.07c-0.14-0.15-0.11-0.42-0.09-0.52c-0.01,0-0.02,0.01-0.03,0.01c-0.14,0.06-0.28,0.12-0.42,0.17
			c0.14,0.25,0.37,0.62,0.37,0.62c-0.35,0.13-0.42-0.34-0.44-0.59c-0.07,0.02-0.13,0.05-0.2,0.08c0.02,0.05,0.02,0.1,0.02,0.1
			c0.02,0.26,0.26,0.56,0.26,0.56c-0.25-0.05-0.4,0.11-0.4,0.11c-0.16,0.13-0.15,0.31-0.14,0.39c0,0.09,0.08,0.17,0.17,0.17
			c0.1,0,0.18-0.08,0.18-0.18c0-0.1-0.08-0.17-0.17-0.18c0.08-0.19,0.26-0.04,0.26-0.04c0.26,0.24-0.15,0.51-0.15,0.51
			c-0.3,0.2-0.58-0.18-0.58-0.18c0.32-0.56,0.38-0.95,0.36-1.19c-0.11,0.04-0.22,0.07-0.33,0.11c0.15,0.5-0.2,0.79-0.2,0.79
			c-0.1-0.07-0.11-0.34-0.11-0.34c-0.03-0.12-0.07-0.23-0.1-0.33c-0.1,0.03-0.19,0.05-0.29,0.07c0.11,0.32,0.15,0.78,0.15,0.78
			c-0.06,0.06-0.23,0.08-0.23,0.08c-0.24,0.02-0.12-0.12-0.12-0.12c0.12-0.1,0.1-0.18,0.1-0.18c-0.07-0.17-0.34-0.01-0.34-0.01
			c-0.36,0.2-0.25,0.41-0.25,0.41c0.05,0.13,0.41,0.26,0.41,0.26c-0.2,0.15-0.57,0.09-0.62,0.08c-0.01-0.1-0.09-0.19-0.19-0.22
			c-0.01,0-0.02-0.01-0.02-0.01c-0.13-0.01-0.2,0.04-0.23,0.09c-0.02,0.03-0.03,0.05-0.04,0.08l-0.22-0.05
			c-0.16-0.02-0.24-0.46-0.29-0.85c-0.06,0.01-0.12,0.01-0.18,0.02c0.06,0.41,0.13,0.78,0.13,0.78c-0.08,0-0.4-0.23-0.4-0.23
			c-0.41-0.24-0.68-0.17-0.69-0.16c-0.2,0.04-0.36,0.21-0.36,0.43c0,0.24,0.2,0.43,0.44,0.43c0.24,0,0.43-0.19,0.43-0.42
			c0.15,0.07,0.29,0.16,0.29,0.16c0.39,0.26,0.76,0.29,0.86,0.29c0.03,0.15,0.15,0.25,0.31,0.25c0.12,0,0.22-0.06,0.27-0.16
			c0.83-0.03,1.14-0.4,1.14-0.4c0.09-0.12,0.11-0.05,0.11-0.05c0.3,0.44,0.9,0.17,0.9,0.17c0.11-0.06,0.14,0.02,0.14,0.02
			c0.12,0.19,0.3,0.09,0.3,0.09c0.24-0.12,0.1-0.27,0.1-0.27c-0.08-0.08,0.02-0.08,0.02-0.08c0.28,0.04,0.33-0.12,0.33-0.12
			c0.06-0.13-0.14-0.24-0.14-0.24c-0.05-0.07,0.05-0.13,0.05-0.13c0.16-0.1,0.14-0.19,0.14-0.19c0.21,0,0.19-0.09,0.19-0.09
			c0.01-0.08-0.25-0.08-0.25-0.08c-0.21-0.02-0.16-0.13-0.16-0.13c0.3-0.01,0.76-0.15,0.76-0.15c0.67,0.55,1.67,0.68,1.67,0.68
			c0.02,0.1-0.01,0.24-0.02,0.25c0,0-0.01,0-0.01,0c-0.09,0-0.17,0.07-0.17,0.16c0,0.09,0.07,0.16,0.16,0.16
			c0.01,0,0.04-0.01,0.04-0.01c0.32-0.08,0.34-0.55,0.34-0.55c0.91,0.09,1.53-0.6,1.53-0.6c0.09-0.08,0.13-0.05,0.15-0.03
			c0,0,0,0,0.01,0c0.05,0.06,0.12,0.1,0.2,0.1c0.09,0,0.17-0.04,0.21-0.11c0.03-0.05,0.04-0.1,0.05-0.14v0v0
			C157.3,28.61,157.25,28.55,157.25,28.55"/>
		<path class="st7" d="M146.29,29.71c0.09-0.04,0.1-0.14,0.1-0.14c0.01-0.25-0.16-0.36-0.17-0.36c-0.11,0-0.21,0.01-0.32,0.01
			c-0.11,0-0.22,0-0.33-0.01c0,0-0.18,0.12-0.17,0.36c0,0,0.02,0.1,0.1,0.14c0,0-0.23,0.1-0.23,0.26c0,0-0.03,0.12,0.18,0.28
			c0,0,0.15,0.17,0.19,0.29c0,0,0.01,0.18,0.26,0.18c0.24,0,0.25-0.18,0.25-0.18c0.04-0.12,0.19-0.29,0.19-0.29
			c0.2-0.16,0.18-0.28,0.18-0.28C146.52,29.81,146.29,29.71,146.29,29.71"/>
	</g>
	<polygon class="st4" points="147.99,28.71 148.11,28.69 148.04,28.55 	"/>
	<polygon class="st4" points="143.97,28.71 144.09,28.72 144.05,28.57 	"/>
	<g>
		<defs>
			<rect id="SVGID_9_" x="131.23" y="10.77" width="65.2" height="65.18"/>
		</defs>
		<clipPath id="SVGID_10_">
			<use xlink:href="#SVGID_9_"  style="overflow:visible;"/>
		</clipPath>
		<path class="st8" d="M143.51,28.38c-0.01,0-0.01,0-0.02,0l-0.03,0.18c0.04,0,0.07,0.01,0.08,0c0.02,0,0.03-0.01,0.04-0.03
			c0.01-0.01,0.02-0.03,0.02-0.05c0-0.03,0-0.06-0.02-0.07C143.57,28.4,143.55,28.39,143.51,28.38"/>
		<path class="st8" d="M145.23,28.52c-0.04,0-0.07,0.02-0.09,0.05c-0.02,0.03-0.03,0.08-0.04,0.15c0,0.08,0.01,0.13,0.02,0.16
			c0.02,0.04,0.05,0.05,0.09,0.05c0.04,0,0.07-0.01,0.1-0.04c0.02-0.03,0.03-0.08,0.04-0.16c0-0.07-0.01-0.12-0.02-0.16
			C145.31,28.54,145.28,28.53,145.23,28.52"/>
		<path class="st8" d="M146.74,28.52c-0.04,0-0.07,0.02-0.09,0.05c-0.02,0.03-0.03,0.08-0.02,0.15c0,0.08,0.01,0.13,0.04,0.16
			c0.02,0.03,0.05,0.05,0.09,0.05c0.04,0,0.07-0.02,0.09-0.05c0.02-0.03,0.03-0.08,0.03-0.16c0-0.07-0.02-0.12-0.04-0.16
			C146.82,28.54,146.78,28.52,146.74,28.52"/>
	</g>
	<polygon class="st4" points="142.62,28.51 142.74,28.54 142.71,28.38 	"/>
	<g>
		<defs>
			<rect id="SVGID_11_" x="131.23" y="10.77" width="65.2" height="65.18"/>
		</defs>
		<clipPath id="SVGID_12_">
			<use xlink:href="#SVGID_11_"  style="overflow:visible;"/>
		</clipPath>
		<path class="st9" d="M140.33,27.61l-0.07,0.18l0.02,0.01c0.04,0.01,0.06,0.01,0.08,0c0.02-0.01,0.03-0.03,0.04-0.06
			c0.01-0.02,0.01-0.04,0.01-0.06c-0.01-0.01-0.01-0.03-0.03-0.04C140.38,27.63,140.36,27.62,140.33,27.61"/>
		<path class="st9" d="M140.9,27.8c-0.04-0.01-0.07,0-0.1,0.02c-0.03,0.03-0.05,0.07-0.08,0.14c-0.02,0.07-0.03,0.13-0.02,0.17
			c0.01,0.04,0.03,0.06,0.07,0.08c0.04,0.01,0.08,0.01,0.1-0.02c0.03-0.02,0.06-0.07,0.08-0.14c0.02-0.07,0.02-0.12,0.01-0.16
			C140.97,27.84,140.95,27.82,140.9,27.8"/>
		<path class="st9" d="M141.46,27.97c-0.01,0-0.01,0-0.02,0l-0.05,0.18c0.04,0.01,0.07,0.01,0.08,0.01c0.01,0,0.03-0.01,0.04-0.02
			c0.01-0.01,0.02-0.03,0.02-0.05c0.01-0.03,0.01-0.06,0-0.08C141.53,27.99,141.5,27.98,141.46,27.97"/>
		<path class="st9" d="M150.47,27.98c-0.02-0.01-0.05-0.01-0.09,0.01c-0.01,0-0.01,0-0.02,0.01l0.05,0.18
			c0.04-0.01,0.07-0.02,0.08-0.03c0.01-0.01,0.02-0.02,0.03-0.04c0-0.02,0-0.03,0-0.06C150.5,28.01,150.49,27.99,150.47,27.98"/>
	</g>
	<polygon class="st4" points="151.47,27.92 151.58,27.88 151.48,27.77 	"/>
	<g>
		<defs>
			<rect id="SVGID_13_" x="131.23" y="10.77" width="65.2" height="65.18"/>
		</defs>
		<clipPath id="SVGID_14_">
			<use xlink:href="#SVGID_13_"  style="overflow:visible;"/>
		</clipPath>
		<path class="st10" d="M151.64,28.05l-0.02-0.04c0.02-0.01,0.03-0.01,0.04-0.02c0.01-0.01,0.01-0.01,0-0.02
			c0-0.01-0.01-0.01-0.01-0.02l-0.01-0.01l-0.03-0.03l-0.14,0.05l0,0.03c0,0.02,0,0.03,0.01,0.04c0,0.01,0.01,0.02,0.02,0.02
			c0.01,0,0.02,0,0.04-0.01l0.01,0.04l-0.15,0.06l-0.01-0.04c0.03-0.01,0.04-0.04,0.04-0.1l0.01-0.41l0.04-0.01l0.28,0.3
			c0.03,0.03,0.05,0.05,0.06,0.05c0.01,0,0.02,0,0.04,0l0.01,0.04L151.64,28.05z M150.9,28.3l-0.01-0.03l0.13-0.48l-0.07,0.03
			c-0.05,0.02-0.08,0.03-0.09,0.05c-0.01,0.01-0.02,0.04-0.02,0.08l-0.04,0.01l-0.03-0.13l0.39-0.13l0.01,0.03l-0.13,0.48l0.11-0.04
			c0.03-0.01,0.05-0.02,0.06-0.03c0.01-0.01,0.02-0.03,0.03-0.04c0.01-0.02,0.01-0.04,0.01-0.07l0.04-0.01l0.04,0.14L150.9,28.3z
			 M150.67,28.37c-0.02-0.01-0.06-0.05-0.11-0.1c-0.03-0.03-0.05-0.04-0.06-0.05c-0.01-0.01-0.02-0.01-0.03-0.01
			c-0.01,0-0.03,0-0.05,0.01l0.03,0.11c0,0.02,0.01,0.04,0.02,0.04c0.01,0.01,0.03,0.01,0.05,0l0.01,0l0.01,0.04l-0.26,0.07
			l-0.01-0.04l0.01,0c0.02-0.01,0.04-0.01,0.04-0.03c0.01-0.01,0-0.03,0-0.05l-0.08-0.28c-0.01-0.02-0.01-0.03-0.02-0.04
			c-0.01-0.01-0.03-0.01-0.05,0l-0.01,0l-0.01-0.04l0.19-0.05l0.04-0.01c0.04-0.01,0.07-0.02,0.09-0.02c0.02,0,0.04,0,0.06,0.01
			c0.02,0.01,0.04,0.02,0.06,0.03c0.01,0.01,0.02,0.03,0.03,0.05c0.02,0.06-0.01,0.1-0.06,0.14c0.02,0.01,0.06,0.03,0.11,0.08
			c0.04,0.04,0.07,0.06,0.08,0.06c0.01,0,0.03,0.01,0.04,0l0.01,0.04L150.67,28.37z M149.76,28.6l-0.01-0.04l0.01,0
			c0.02-0.01,0.04-0.01,0.04-0.02c0.01-0.01,0.01-0.03,0-0.05l-0.07-0.28c-0.01-0.02-0.01-0.04-0.02-0.04
			c-0.01-0.01-0.03-0.01-0.05,0l-0.01,0l-0.01-0.04l0.41-0.09l0.04,0.12l-0.04,0.01c-0.01-0.02-0.02-0.04-0.04-0.05
			c-0.01-0.01-0.02-0.02-0.03-0.02c-0.01,0-0.02,0-0.05,0.01l-0.09,0.02l0.04,0.17l0.04-0.01c0.02-0.01,0.03-0.01,0.04-0.02
			c0-0.01,0.01-0.03,0-0.05l0.04-0.01l0.04,0.16l-0.04,0.01c0,0,0,0,0,0c0-0.02-0.01-0.03-0.02-0.04c-0.01-0.01-0.03-0.01-0.05-0.01
			l-0.05,0.01l0.03,0.12c0.01,0.02,0.01,0.04,0.01,0.04c0,0.01,0.01,0.01,0.02,0.01c0.01,0,0.03,0,0.06-0.01
			c0.03-0.01,0.05-0.02,0.06-0.03c0.01-0.01,0.02-0.03,0.03-0.05c0.01-0.02,0.01-0.04,0.01-0.07l0.04-0.01l0.04,0.16L149.76,28.6z
			 M149.54,28.26l0.03,0.16c0.01,0.03,0.01,0.06,0.01,0.09s0,0.04-0.02,0.07c-0.01,0.03-0.03,0.05-0.06,0.06
			c-0.03,0.02-0.06,0.03-0.09,0.04c-0.04,0.01-0.07,0.01-0.1,0c-0.03-0.01-0.06-0.02-0.08-0.03c-0.02-0.01-0.03-0.03-0.05-0.05
			c-0.01-0.02-0.02-0.05-0.02-0.07l-0.04-0.19c0-0.02-0.01-0.04-0.02-0.04c-0.01-0.01-0.03-0.01-0.05,0l-0.01-0.04l0.26-0.05
			l0.01,0.04l-0.01,0c-0.02,0-0.04,0.01-0.05,0.02c-0.01,0.01-0.01,0.03,0,0.05l0.03,0.19c0.01,0.04,0.01,0.06,0.03,0.08
			c0.01,0.02,0.03,0.03,0.05,0.04c0.02,0.01,0.05,0.01,0.07,0.01c0.03-0.01,0.05-0.02,0.07-0.04c0.02-0.02,0.03-0.04,0.03-0.06
			c0-0.02,0-0.05-0.01-0.09l-0.03-0.16c-0.01-0.05-0.04-0.07-0.09-0.06l-0.01-0.04l0.18-0.03l0.01,0.04c-0.01,0-0.02,0.01-0.03,0.01
			c-0.01,0.01-0.02,0.02-0.02,0.03C149.53,28.23,149.54,28.24,149.54,28.26 M148.97,28.38c-0.01-0.02-0.02-0.04-0.03-0.05
			c-0.01-0.01-0.02-0.02-0.04-0.02c-0.01,0-0.03,0-0.05,0l-0.08,0.01l0.03,0.17l0.04-0.01c0.02,0,0.03-0.01,0.04-0.02
			c0.01-0.01,0.01-0.02,0.01-0.05l0.04-0.01l0.03,0.16l-0.04,0.01c0-0.03-0.01-0.04-0.02-0.05c-0.01-0.01-0.02-0.01-0.04-0.01
			l-0.04,0.01l0.02,0.13c0,0.02,0.01,0.04,0.02,0.04c0.01,0.01,0.02,0.01,0.05,0.01l0.01,0l0.01,0.04l-0.26,0.04l-0.01-0.04l0.01,0
			c0.03,0,0.04-0.01,0.05-0.02c0.01-0.01,0.01-0.03,0-0.05l-0.04-0.29c0-0.02-0.01-0.04-0.02-0.04c-0.01-0.01-0.03-0.01-0.05-0.01
			l-0.01,0l-0.01-0.04l0.41-0.06l0.02,0.13L148.97,28.38z M148.13,28.86l-0.01-0.04c0.02,0,0.04-0.01,0.04-0.01
			c0,0,0.01-0.01,0.01-0.01c0-0.01-0.01-0.01-0.01-0.02l0-0.01l-0.02-0.03l-0.15,0.02l-0.01,0.03c-0.01,0.02-0.01,0.03-0.01,0.04
			c0,0.01,0.01,0.02,0.01,0.02c0.01,0.01,0.02,0.01,0.04,0l0.01,0.04l-0.16,0.02l0-0.04c0.03-0.01,0.05-0.03,0.07-0.09l0.11-0.4
			l0.04-0.01l0.2,0.36c0.02,0.03,0.04,0.06,0.05,0.06c0.01,0.01,0.02,0.01,0.04,0.01l0.01,0.04L148.13,28.86z M147.38,28.94
			l-0.01-0.04l0.01,0c0.02,0,0.04-0.01,0.05-0.02c0.01-0.01,0.01-0.03,0.01-0.05l-0.03-0.29c0-0.02-0.01-0.04-0.02-0.05
			c-0.01-0.01-0.02-0.01-0.05-0.01l-0.01,0l0-0.04l0.26-0.02l0,0.04l-0.01,0c-0.02,0-0.04,0.01-0.04,0.02
			c-0.01,0.01-0.01,0.03-0.01,0.05l0.02,0.28c0,0.02,0,0.04,0.01,0.04c0,0.01,0.01,0.01,0.02,0.01c0.01,0.01,0.03,0.01,0.05,0
			c0.04,0,0.07-0.02,0.09-0.04c0.02-0.02,0.03-0.05,0.04-0.09l0.04,0l0.01,0.16L147.38,28.94z M146.96,28.9
			c-0.05,0.05-0.11,0.08-0.2,0.08c-0.06,0-0.11-0.01-0.16-0.03c-0.04-0.02-0.08-0.06-0.1-0.09c-0.02-0.04-0.03-0.08-0.03-0.12
			c0-0.04,0.01-0.09,0.03-0.13c0.02-0.04,0.05-0.08,0.1-0.1c0.04-0.02,0.09-0.04,0.13-0.04c0.09-0.01,0.16,0.02,0.21,0.07
			c0.05,0.05,0.08,0.11,0.08,0.18C147.03,28.79,147.01,28.85,146.96,28.9 M146.14,28.54c-0.01,0-0.02,0-0.04,0.01
			c-0.01,0.01-0.02,0.02-0.02,0.03c0,0.01-0.01,0.03-0.01,0.05V29h-0.05l-0.32-0.36v0.22c0,0.04,0.01,0.06,0.02,0.07
			c0.01,0.01,0.03,0.01,0.05,0.01v0.04h-0.18v-0.04c0.02,0,0.03,0,0.04-0.01c0.01-0.01,0.02-0.02,0.02-0.03c0-0.01,0-0.03,0.01-0.05
			l0-0.25c0-0.05-0.02-0.07-0.07-0.07V28.5l0.17,0l0.27,0.3v-0.18c0-0.05-0.02-0.08-0.07-0.08V28.5l0.18,0V28.54z M145.42,28.92
			c-0.05,0.05-0.12,0.07-0.2,0.07c-0.06,0-0.11-0.02-0.15-0.04c-0.04-0.03-0.07-0.06-0.09-0.1c-0.02-0.04-0.03-0.08-0.02-0.12
			c0-0.05,0.01-0.09,0.04-0.13c0.03-0.04,0.06-0.07,0.1-0.09c0.04-0.02,0.09-0.03,0.14-0.03c0.09,0.01,0.15,0.03,0.2,0.08
			c0.05,0.05,0.07,0.11,0.07,0.19C145.5,28.81,145.47,28.87,145.42,28.92 M144.84,28.5l-0.31,0.39l0.11,0.01
			c0.03,0,0.05,0,0.07-0.01c0.01,0,0.03-0.01,0.04-0.03c0.01-0.01,0.02-0.04,0.03-0.06l0.04,0l-0.02,0.15l-0.44-0.03l0-0.03
			l0.3-0.39l-0.08-0.01c-0.05,0-0.08,0-0.1,0.01c-0.02,0.01-0.03,0.03-0.05,0.07l-0.04,0l0.02-0.13l0.41,0.03L144.84,28.5z
			 M144.31,28.92l-0.24-0.02l0-0.04c0.02,0,0.04,0,0.04,0c0.01,0,0.01-0.01,0.01-0.02c0-0.01,0-0.01,0-0.02l0-0.01l-0.01-0.04
			l-0.15-0.01l-0.01,0.02c-0.01,0.02-0.01,0.03-0.01,0.04c0,0.01,0,0.02,0.01,0.03c0.01,0,0.02,0.01,0.04,0.01l0,0.04l-0.16-0.02
			l0-0.04c0.03,0,0.06-0.02,0.09-0.07l0.19-0.36l0.04,0l0.12,0.4c0.01,0.04,0.02,0.06,0.03,0.07c0.01,0.01,0.02,0.01,0.04,0.02
			L144.31,28.92z M143.77,28.86l-0.15-0.02c-0.01-0.02-0.03-0.06-0.06-0.14c-0.02-0.04-0.03-0.06-0.03-0.07
			c-0.01-0.01-0.01-0.02-0.02-0.02c-0.01,0-0.02-0.01-0.05-0.01l-0.01,0.12c0,0.02,0,0.04,0.01,0.05c0.01,0.01,0.02,0.02,0.04,0.02
			h0.01l0,0.04l-0.26-0.03l0.01-0.04l0.01,0c0.03,0,0.04,0,0.05-0.01c0.01-0.01,0.02-0.02,0.02-0.04l0.04-0.29
			c0-0.02,0-0.04-0.01-0.05c-0.01-0.01-0.02-0.02-0.05-0.02l-0.01,0l0-0.04l0.2,0.03l0.04,0.01c0.04,0.01,0.07,0.01,0.09,0.02
			c0.02,0,0.04,0.01,0.06,0.03c0.02,0.01,0.03,0.03,0.04,0.05c0.01,0.02,0.01,0.04,0.01,0.06c-0.01,0.06-0.05,0.09-0.12,0.11
			c0.02,0.01,0.04,0.05,0.07,0.11c0.02,0.05,0.04,0.08,0.05,0.09c0.01,0.01,0.03,0.01,0.04,0.02L143.77,28.86z M142.94,28.75
			l-0.24-0.04l0.01-0.04c0.02,0,0.03,0,0.04,0c0.01-0.01,0.01-0.01,0.01-0.01c0-0.01,0-0.01,0-0.03l0-0.01l-0.01-0.04l-0.15-0.03
			l-0.01,0.02c-0.01,0.01-0.02,0.03-0.02,0.03c0,0.01,0,0.02,0.01,0.03c0.01,0.01,0.02,0.01,0.04,0.01l-0.01,0.04l-0.16-0.03
			l0.01-0.04c0.03,0.01,0.06-0.01,0.09-0.06l0.21-0.35l0.04,0.01l0.08,0.4c0.01,0.04,0.02,0.07,0.03,0.08
			c0.01,0.01,0.02,0.01,0.03,0.01L142.94,28.75z M142.41,28.65l-0.44-0.1l0.01-0.04h0.01c0.02,0.01,0.04,0.01,0.05,0
			c0.01-0.01,0.02-0.02,0.02-0.04l0.06-0.28c0-0.02,0-0.04,0-0.05c-0.01-0.01-0.02-0.02-0.04-0.02l-0.01,0l0.01-0.04l0.26,0.05
			l-0.01,0.04l-0.01,0c-0.02,0-0.04,0-0.05,0c-0.01,0.01-0.01,0.02-0.02,0.04l-0.06,0.27c-0.01,0.02-0.01,0.04-0.01,0.04
			c0,0.01,0.01,0.01,0.02,0.02c0.01,0.01,0.02,0.02,0.05,0.02c0.04,0.01,0.07,0,0.1-0.01c0.03-0.01,0.05-0.04,0.06-0.08l0.04,0.01
			L142.41,28.65z M141.6,28.33c0.02,0.05,0.03,0.08,0.04,0.09c0.01,0.01,0.02,0.02,0.04,0.02l-0.01,0.04l-0.15-0.04
			c-0.01-0.02-0.03-0.07-0.04-0.14c-0.01-0.04-0.02-0.06-0.02-0.07c0-0.01-0.01-0.02-0.02-0.03c-0.01-0.01-0.03-0.01-0.05-0.02
			l-0.03,0.11c-0.01,0.02-0.01,0.04,0,0.05c0,0.01,0.02,0.02,0.04,0.03l0.01,0l-0.01,0.04l-0.26-0.07l0.01-0.04l0.01,0
			c0.02,0.01,0.04,0.01,0.05,0c0.01-0.01,0.02-0.02,0.02-0.04l0.08-0.28c0-0.02,0.01-0.04,0-0.05c-0.01-0.01-0.02-0.02-0.04-0.02
			l-0.01,0l0.01-0.04l0.19,0.05l0.04,0.01c0.04,0.01,0.07,0.02,0.09,0.03c0.02,0.01,0.04,0.02,0.05,0.04
			c0.02,0.02,0.03,0.03,0.03,0.06c0.01,0.02,0.01,0.04,0,0.06c-0.02,0.06-0.06,0.09-0.13,0.09
			C141.56,28.22,141.58,28.26,141.6,28.33 M141.11,28.09c-0.02,0.07-0.06,0.11-0.12,0.15c-0.06,0.03-0.13,0.03-0.22,0.01
			c-0.05-0.02-0.1-0.04-0.13-0.08c-0.03-0.04-0.05-0.08-0.06-0.12c0-0.05,0-0.09,0.01-0.12c0.01-0.04,0.04-0.08,0.07-0.11
			c0.04-0.03,0.08-0.05,0.12-0.06c0.05-0.01,0.09,0,0.14,0.01c0.08,0.03,0.14,0.07,0.17,0.13
			C141.12,27.95,141.13,28.02,141.11,28.09 M140.54,27.78c-0.01,0.03-0.03,0.05-0.06,0.07c-0.03,0.01-0.06,0.02-0.09,0.02
			c-0.03,0-0.07-0.01-0.11-0.03l-0.04-0.01l-0.04,0.11c-0.01,0.02-0.01,0.04,0,0.05c0,0.01,0.02,0.02,0.04,0.03l0.01,0l-0.01,0.04
			l-0.25-0.09l0.01-0.04l0.01,0c0.02,0.01,0.04,0.01,0.05,0.01c0.01-0.01,0.02-0.02,0.03-0.04l0.1-0.27
			c0.01-0.02,0.01-0.03,0.01-0.05c-0.01-0.01-0.02-0.02-0.04-0.03l-0.01,0l0.01-0.04l0.19,0.06c0.05,0.02,0.08,0.03,0.11,0.04
			c0.02,0.01,0.05,0.03,0.06,0.05c0.02,0.02,0.03,0.04,0.03,0.06C140.55,27.74,140.55,27.76,140.54,27.78 M145.23,28.33l0.15,0.01
			l-0.17,0.11h-0.03L145.23,28.33z M151.93,27.3c-0.05-0.03-0.11-0.05-0.17-0.05c-0.06,0-0.11,0.02-0.11,0.02
			c-0.22,0.06-2.3,0.98-5.74,0.98c-3.44,0-5.52-0.92-5.75-0.98c0,0-0.05-0.02-0.11-0.02c-0.06,0-0.12,0.02-0.17,0.05l-0.71,0.55h0
			c0.2,0,0.44,0.11,0.44,0.11c1.84,0.8,3.94,1.14,6.29,1.16c2.35-0.02,4.45-0.35,6.29-1.16c0.01,0,0.24-0.11,0.44-0.11h0
			L151.93,27.3z"/>
		<path class="st10" d="M143.71,20.47c-0.11-0.06-0.21-0.12-0.27-0.16c-0.06,0.04-0.16,0.1-0.26,0.16H143.71z"/>
		<path class="st10" d="M144.95,20.35c-0.05,0.02-0.14,0.06-0.22,0.1c0,0-0.02,0.01-0.03,0.01h2.22c-0.02-0.01-0.03-0.01-0.03-0.01
			c-0.08-0.04-0.18-0.08-0.22-0.1c-0.01,0-0.02-0.01-0.03-0.01c-0.1-0.04-0.2-0.07-0.29-0.1h-1.08c-0.09,0.02-0.19,0.05-0.29,0.1
			C144.98,20.34,144.97,20.35,144.95,20.35"/>
		<path class="st10" d="M148.29,20.31C148.29,20.31,148.29,20.31,148.29,20.31c-0.05,0.04-0.13,0.1-0.24,0.16h0.46
			c-0.08-0.06-0.17-0.11-0.22-0.15C148.3,20.31,148.29,20.31,148.29,20.31"/>
		<path class="st10" d="M143.14,24.73v-1.15C143.05,23.81,142.92,24.28,143.14,24.73"/>
	</g>
	<polygon class="st4" points="145.81,22.81 143.69,22.13 145.35,22.13 	"/>
	<g>
		<defs>
			<rect id="SVGID_15_" x="131.23" y="10.77" width="65.2" height="65.18"/>
		</defs>
		<clipPath id="SVGID_16_">
			<use xlink:href="#SVGID_15_"  style="overflow:visible;"/>
		</clipPath>
		<path class="st11" d="M145.8,20.62h-2.83l0,0.01c0,0.03,0.01,0.06,0.03,0.07c0.02,0.02,0.06,0.07,0.11,0.15h2.62L145.8,20.62z"/>
		<path class="st11" d="M145.69,21h-2.47c0.04,0.07,0.08,0.14,0.12,0.23h2.28L145.69,21z"/>
		<path class="st11" d="M145.57,21.37h-2.17c0.03,0.07,0.06,0.15,0.08,0.23h2.02L145.57,21.37z"/>
		<path class="st11" d="M145.46,21.75h-1.94c0.01,0.07,0.03,0.15,0.03,0.23h1.84L145.46,21.75z"/>
		<path class="st11" d="M144.22,22.51h-0.67c-0.01,0.07-0.02,0.15-0.05,0.23h1.03L144.22,22.51z"/>
		<path class="st11" d="M144.01,22.36l-0.32-0.23h-0.13v0.02c0,0.03,0.01,0.1,0,0.21H144.01z"/>
		<path class="st11" d="M145.82,20.62l-0.01-0.03v0.03v0.23V21v0.23v0.15v0.23v0.15v0.23v0.83l2.13-0.68h-1.66l-0.05-0.15h1.87
			c0.01-0.08,0.02-0.15,0.04-0.23h-1.98l-0.05-0.15h2.07c0.02-0.08,0.05-0.15,0.08-0.23h-2.22l-0.05-0.15h2.33
			c0.04-0.08,0.08-0.16,0.13-0.23h-2.53l-0.04-0.15h2.67c0.07-0.11,0.14-0.18,0.15-0.2c0.01-0.01,0.01-0.02,0.01-0.03H145.82z"/>
		<path class="st11" d="M146.32,24.02v1.7c0.07-0.05,0.15-0.09,0.23-0.12v-1.41L146.32,24.02z"/>
		<path class="st11" d="M145.94,23.73v2.46c0.03-0.06,0.07-0.11,0.09-0.14l0.01-0.02c0.04-0.07,0.08-0.13,0.13-0.18V23.9
			L145.94,23.73z"/>
		<path class="st11" d="M145.56,23.83v1.98c0.07,0.06,0.13,0.14,0.18,0.23l0.01,0.02c0.01,0.01,0.02,0.03,0.03,0.05v-2.45
			L145.56,23.83z"/>
		<path class="st11" d="M145.18,24.11v1.48c0.08,0.03,0.15,0.06,0.23,0.11v-1.76L145.18,24.11z"/>
		<path class="st11" d="M146.7,25.55c0.08-0.02,0.16-0.04,0.23-0.05v-1.02l-0.23-0.17V25.55z"/>
		<path class="st11" d="M144.8,25.49c0.07,0.01,0.15,0.03,0.23,0.05v-1.31l-0.23,0.17V25.49z"/>
		<path class="st11" d="M144.65,23.11h0.15v0.67l-0.15,0.44V23.11z M145.81,22.81l-0.78,0.28l-0.29-0.21h-1.29
			c-0.02,0.07-0.05,0.15-0.08,0.23c-0.02,0.06-0.05,0.11-0.08,0.17v1.68c0.05,0.06,0.12,0.13,0.23,0.21v-2.06h0.15v2.16
			c0.07,0.04,0.14,0.07,0.23,0.1v-2.26h0.15v2.3c0.07,0.02,0.15,0.03,0.23,0.04v-2.34h0.15v2.36c0.03,0,0.06,0,0.1,0
			c0.02,0,0.06,0,0.13,0.01v-0.96l-0.13,0.1L145.81,22.81z"/>
		<path class="st11" d="M147.08,24.54l-0.15-0.44v-0.98h0.15V24.54z M148.27,23.11L148.27,23.11c-0.04-0.08-0.07-0.16-0.09-0.23
			h-1.3l-0.29,0.21l-0.57-0.21l-0.21-0.08l1.27,1.79v0.89c0.09-0.01,0.15-0.01,0.18-0.01c0.02,0,0.03,0,0.05,0v-2.36h0.15v2.35
			c0.08-0.01,0.16-0.02,0.23-0.03v-2.31h0.15v2.27c0.08-0.02,0.16-0.06,0.23-0.09v-2.18h0.15v2.1c0.09-0.06,0.16-0.12,0.21-0.17
			c0.01-0.01,0.01-0.02,0.02-0.03v-1.55C148.37,23.34,148.31,23.22,148.27,23.11"/>
		<path class="st11" d="M147.09,22.73h1.05c-0.02-0.09-0.03-0.16-0.04-0.23h-0.69L147.09,22.73z"/>
		<path class="st11" d="M147.93,22.13l-0.32,0.23h0.47c0-0.08,0-0.13,0.01-0.16c0-0.02,0-0.05,0-0.07H147.93z"/>
		<path class="st11" d="M149.08,16.75C149.07,16.75,149.07,16.75,149.08,16.75c-0.01,0-0.01-0.01-0.01-0.01
			c0-0.04,0.01-0.07,0.01-0.11c0.01-0.09,0.01-0.17-0.01-0.27c-0.11-0.46-0.49-0.63-0.77-0.35c0,0,0.3-0.56,0.97-0.35
			c0.17,0.05,0.29,0.19,0.38,0.39c0.08,0.18,0.04,0.36-0.01,0.46c0,0-0.01,0-0.01,0c0,0-0.01-0.01,0-0.01
			c0.02-0.11-0.01-0.28-0.07-0.42c-0.03-0.08-0.11-0.21-0.22-0.24c0.07,0.1,0.12,0.18,0.15,0.25c0.04,0.1,0.04,0.15,0.04,0.2
			c0,0.21-0.1,0.44-0.19,0.53c0,0-0.01,0-0.01,0c-0.01,0-0.01-0.01,0-0.01c0.11-0.25,0.12-0.47,0.03-0.67
			c-0.01-0.02-0.02-0.04-0.03-0.06c-0.08-0.14-0.21-0.3-0.41-0.29c0.1,0.07,0.18,0.17,0.23,0.29
			C149.24,16.33,149.22,16.63,149.08,16.75 M146.66,14.4c-0.01-0.02,0.42,0.08,0.49,0.46c0.01,0.24-0.12,0.31-0.14,0.3
			c-0.01,0-0.01-0.02-0.01-0.03c0.07-0.16,0.04-0.41-0.08-0.56C146.83,14.48,146.67,14.42,146.66,14.4 M146.4,18.51
			c-0.09-0.16,0.15-0.35,0.2-0.51C146.89,17.96,146.53,18.47,146.4,18.51 M146.45,18.94c-0.06-0.03-0.06-0.15-0.05-0.21
			c0.02-0.15,0.2-0.22,0.28-0.31C146.7,18.42,146.69,18.67,146.45,18.94 M146.51,17.18c0.21,0.09-0.1,0.5-0.13,0.58
			c0.05-0.02,0.21-0.2,0.28-0.15c0.11,0.09-0.22,0.52-0.3,0.54C145.9,17.56,146.49,17.38,146.51,17.18 M146.16,19.11
			c-0.07-0.02-0.03-0.15-0.03-0.21c0-0.32-0.01-0.64-0.09-0.91c-0.04-0.13-0.15-0.56-0.43-1.11c0.11,0.13,0.54,0.8,0.6,1.31
			C146.24,18.48,146.3,18.86,146.16,19.11 M145.9,18.92c-0.22,0.01-0.24-0.15-0.28-0.31c0.09,0.08,0.23,0.18,0.22,0.01
			c-0.08-0.07-0.57-0.2-0.44-0.41c0.08-0.12,0.34,0.35,0.42,0.19c0.04-0.31-0.94-0.41-0.91-0.68c0.01-0.15,0.77,0.37,0.88,0.36
			c-0.01-0.17-1.14-0.63-1.49-1.24c-0.02-0.05-0.04-0.08-0.03-0.09c0,0,0.01,0,0.01,0c0.21,0.34,0.77,0.79,1.46,0.98
			C145.98,17.79,146.09,18.55,145.9,18.92 M143.47,17.36c0.11-0.3,0.17-0.76-0.31-0.88c-0.37-0.09-0.71,0.19-0.88,0.34
			c0.11-0.34,0.48-0.6,0.97-0.49c-0.1-0.29-0.47-0.41-0.89-0.17c-0.1,0.05-0.18,0.12-0.25,0.18c0.08-0.21,0.25-0.37,0.46-0.45
			c0.32-0.12,0.65,0.01,0.82,0.17C143.91,16.59,143.63,17.32,143.47,17.36 M142.54,17.62c0.26-0.07,0.49-0.21,0.43-0.45
			c-0.02-0.07-0.08-0.13-0.18-0.14c-0.15-0.01-0.24,0.09-0.32,0.2c0.02-0.23,0.16-0.38,0.39-0.35c0.12,0.01,0.29,0.13,0.31,0.26
			C143.24,17.5,142.91,17.65,142.54,17.62 M149.18,17.65c0.07,0,0.13,0,0.18-0.01c0.71-0.18,0.73-1.05,0.62-1.11
			c0,0.01-0.01,0.01-0.01-0.01c-0.02,0.05-0.04,0.11-0.06,0.15c-0.04,0.09-0.1,0.15-0.12,0.14c0,0-0.01-0.02,0-0.02
			c0.16-0.27,0.15-0.48,0.07-0.75c-0.06-0.14-0.14-0.29-0.28-0.38c-0.36-0.25-1.07-0.29-1.46,0.01c-0.14-0.14-0.3-0.24-0.51-0.31
			c-0.05,0.22-0.29,0.51-0.5,0.66c-0.04,0.03-0.16,0.11-0.21,0.11c0,0-0.05-0.01,0-0.05c0.38-0.24,0.56-0.52,0.57-0.88V15.2
			c-0.01-0.18-0.06-0.52-0.28-0.75c-0.35-0.38-1.27-0.43-1.7-0.07c-0.11,0.12-0.18,0.26-0.22,0.44c0.05-0.13,0.14-0.26,0.34-0.32
			c0.19-0.06,0.55-0.02,0.6,0.2c-0.32-0.33-0.9-0.08-0.98,0.47v-0.01c-0.01,0.04-0.03,0.04-0.03,0.04h0c-0.02,0-0.04,0-0.03-0.25
			c0.01-0.15,0.05-0.35,0.12-0.51c-0.71-0.13-1.57,0.22-1.56,1.28c0.01,0.15,0.07,0.29,0.2,0.45c0.03,0.03,0.01,0.04,0.01,0.04
			c-0.02,0.01-0.11-0.05-0.16-0.12c-0.07-0.1-0.13-0.23-0.17-0.35c-0.45-0.16-0.72-0.16-0.98-0.14c-0.26,0.02-0.61,0.26-0.73,0.42
			c-0.06,0.07-0.12,0.17-0.16,0.26c-0.09,0.17-0.15,0.39-0.13,0.63c0.04,0.42,0.24,0.77,0.55,0.93c0.41,0.23,0.94,0.2,1.13,0.17
			c0.1-0.02,0.21-0.06,0.32-0.13c0.02-0.01,0.03-0.02,0.04-0.03c0.01-0.01,0.01-0.01,0.02-0.01c0.17-0.15,0.27-0.37,0.25-0.66
			c0-0.01,0.01-0.02,0.01-0.02c0.02,0,0.04,0.08,0.04,0.18c0,0.11-0.03,0.24-0.07,0.36c0,0.02,0,0.04,0,0.06
			c0.01,0.04,0.02,0.08,0.05,0.11c0.08,0.09,0.27,0.12,0.43,0.06c0.01,0,0.02,0,0.02,0c0,0.02-0.1,0.13-0.29,0.13
			c-0.04,0-0.08,0-0.11-0.01c0.1,0.18,0.4,0.3,0.7,0.28c0.01,0,0.02,0.01,0.02,0.01c0,0.02-0.08,0.04-0.18,0.04
			c-0.14,0-0.31-0.03-0.43-0.1c0.14,0.18,0.39,0.33,0.82,0.39c0.01,0.05-0.32,0.01-0.42-0.02c0.2,0.77,0.61,0.68,0.62,0.74
			c-0.12,0.04-0.21,0.19-0.12,0.36c0.44-0.16,0.76-0.17,0.86-0.17c0.1,0,0.43,0.01,0.88,0.18c0.05-0.06,0.05-0.13,0.03-0.2
			c-0.07-0.19-0.66-0.34-1.22-0.18c-0.02,0.01-0.05,0.02-0.07,0.04c0,0-0.01,0-0.01,0c0,0,0-0.01,0.01-0.01v0
			c0.01-0.01,0.07-0.05,0.07-0.05c0.24-0.13,0.75-0.18,1.03-0.04c0,0,0,0,0,0c0.24,0.1,0.45-0.19,0.37-0.34
			c0.17,0.01,0.3-0.1,0.32-0.27c-0.03,0.02-0.06,0.03-0.09,0.05v0c-0.06,0.03-0.12,0.03-0.13,0.02c0,0,0,0,0-0.01h0l0,0l0-0.01
			c0.03-0.01,0.05-0.02,0.08-0.04c0.32-0.19,0.48-0.55,0.45-0.67c-0.03,0.07-0.13,0.12-0.23,0.12c-0.05,0-0.08-0.01-0.09-0.02
			c0-0.01,0.01-0.01,0.01-0.01c0.05,0,0.08-0.02,0.12-0.04c0.11-0.08,0.22-0.23,0.27-0.36c-0.2-0.19-0.27-0.42-0.39-0.72
			c-0.04-0.11-0.14-0.23-0.28-0.24c-0.01,0-0.05,0-0.06,0c-0.02,0-0.03,0.01-0.05,0.01c0,0-0.01,0-0.01,0
			c0.15-0.13,0.33,0.01,0.42,0.07c0.02-0.29,0.12-0.36,0.13-0.35c0.01,0,0.01,0.01,0,0.01c-0.2,0.59,0.19,1.14,0.5,1.32
			c0.41,0.22,1.15,0.25,1.64-0.16h0c-0.09,0.02-0.18,0.04-0.27,0.04c-0.1,0-0.18-0.02-0.18-0.04
			C149.16,17.66,149.17,17.65,149.18,17.65"/>
		<path class="st11" d="M155.1,25.78c-0.04,0.21-0.14,0.74-0.16,0.7c0.44-4.01,0.2-5.01,0.12-4.99c-0.06,0.02-0.13,0.5-0.36,0.35
			c-0.22-0.14,0.5-1.03,0.21-1.51c-0.06-0.08-0.13,0.11-0.24,0.08c-0.3-0.1,0.16-0.86,0.07-0.94c-0.06-0.06-0.29-0.1-0.29-0.39
			c0-0.13,0.08-0.23-0.02-0.34c-0.08-0.08-0.07,0.07-0.15,0.04c-0.14-0.15-0.01-0.31-0.08-0.42c-0.04-0.03-0.13,0.09-0.21,0.03
			c-0.08-0.07,0.05-0.2-0.05-0.24c-0.13,0.02-0.32,0.16-0.29,0.37c0.02,0.11,0.15,0.18,0.14,0.31c-0.01,0.11-0.14,0.24-0.16,0.29
			c-0.19,0.43,0.13,0.52,0.09,0.68c-0.02,0.07-0.16,0.11-0.25,0.08c-0.12-0.05-0.14-0.44-0.1-0.6c0.04-0.18,0.3-0.4,0.3-0.5
			c0-0.11-0.12-0.24-0.14-0.39c-0.02-0.24,0.16-0.46,0.39-0.41c0.15,0.03,0.25,0.16,0.34,0.27c0.04,0.04,0.09,0.08,0.12,0.12
			c0.27,0.33,0.48,0.92,0.61,1.4C155.37,21.15,155.55,23.35,155.1,25.78 M153.11,20.08c-0.06,0.06-0.23,0.14-0.33,0.17
			c-0.21,0.05-0.4-0.02-0.49-0.15c0.15-0.05,0.29,0.06,0.5,0.03c0.06-0.01,0.14-0.03,0.2-0.04c0.06-0.02,0.11-0.08,0.18-0.08
			C153.19,20.03,153.14,20.06,153.11,20.08 M150.89,26.72L150.89,26.72c0,0.01-0.01,0.02-0.01,0.03c-0.11,0-0.36-0.17-0.36-0.17
			c-0.03-0.02-0.14-0.08-0.23-0.05v0c-0.1,0.04-0.14,0.14-0.2,0.19c-0.01-0.02-0.01-0.04-0.02-0.06c0,0,0,0-0.01-0.01
			c0-0.02,0-0.03,0-0.05V26.6c0-0.01,0-0.03,0-0.04c0-0.01,0.01-0.01,0.01-0.02c0.01-0.02,0.01-0.03,0.02-0.04
			c0.01-0.01,0.01-0.02,0.02-0.03c0.01,0,0.01-0.01,0.02-0.01c0.01-0.01,0.02-0.02,0.03-0.02c0,0,0.01-0.01,0.01-0.01
			c0.05-0.03,0.12-0.04,0.19-0.03c0.09,0.01,0.19,0.04,0.25,0.1c0.08,0.07,0.24,0.09,0.35,0.1
			C150.97,26.59,150.92,26.66,150.89,26.72 M141.76,26.2c0,0.01,0,0.02-0.01,0.02c0,0-0.01,0.01-0.01,0.01c0,0-0.01,0.01-0.01,0.01
			c-0.02,0.01-0.05,0.01-0.09,0.02c-0.06,0-0.12-0.01-0.16-0.02c-0.01,0.04,0.01,0.06,0.04,0.08v0c0,0,0,0,0,0
			c0.01,0.01,0.03,0.02,0.04,0.02c0.03,0.01,0.05,0.02,0.07,0.03c0.01,0.05-0.09,0.09-0.14,0.09c-0.1,0-0.16-0.11-0.19-0.17
			c-0.01-0.01-0.02-0.01-0.03-0.02c-0.01-0.01-0.01-0.01-0.02-0.01c-0.08-0.05-0.21-0.06-0.33-0.07c0.02-0.22,0.63-0.07,0.64-0.06
			c0.06,0.01,0.14,0.01,0.19,0.05C141.76,26.19,141.76,26.19,141.76,26.2 M151.12,24.69c-0.51,0.04-0.84-0.43-0.81-0.41
			c0.03,0.01,0.18,0.17,0.35,0.24c0.24,0.09,0.57,0.04,0.73-0.09c0.01,0,0.03-0.01,0.04,0C151.45,24.46,151.42,24.63,151.12,24.69
			 M149.32,24.34L149.32,24.34c-0.01,0.01-0.02,0.02-0.02,0.03c-0.01,0.01-0.02,0.01-0.03,0.02l0,0c-0.01,0.01-0.02,0.01-0.03,0.02
			l0,0c-0.01,0-0.02,0-0.03,0.01c0,0-0.01,0-0.01,0c-0.01,0-0.02,0-0.02,0h-0.01c-0.01,0-0.02-0.01-0.03-0.01c0,0-0.01,0-0.01,0
			c-0.01,0-0.02-0.01-0.03-0.02c-0.01,0-0.01-0.01-0.02-0.01c-0.01-0.01-0.02-0.02-0.03-0.03c-0.01-0.01-0.01-0.01-0.01-0.01
			c0,0-0.06-0.11,0.03-0.12c0.01,0.01,0.03,0.03,0.04,0.04c0,0,0.01,0,0.01,0.01c0.01,0.01,0.02,0.01,0.02,0.01c0,0,0.01,0,0.01,0
			c0.01,0,0.02,0,0.03,0l0,0c0.01,0,0.01-0.01,0.02-0.01c0,0,0-0.01,0.01-0.01c0,0,0-0.01,0.01-0.02c0,0,0-0.01,0-0.01
			c0.01-0.01,0.01-0.02,0.01-0.04c0,0,0-0.01,0-0.01c0-0.01,0-0.02,0-0.03c0-0.01,0-0.02,0-0.03c0-0.01,0-0.02,0-0.03
			c0.01-0.17,0-0.41,0.05-0.49c0-0.01,0.01-0.01,0.01-0.02c0,0,0,0,0,0c0.01,0,0.01-0.01,0.01-0.01h0.01h0c0.01,0,0.02,0,0.03,0.01
			c0,0,0.01,0.01,0.01,0.01c0,0,0.01,0.01,0.01,0.01c0,0.01,0,0.01,0.01,0.01c0,0.01,0,0.01,0,0.02c0,0,0,0.01,0,0.02v0.03v0.02
			c0,0.04,0,0.1,0,0.17v0.03v0c0,0.04,0.01,0.08,0.01,0.12C149.4,24.13,149.37,24.26,149.32,24.34 M148.63,24.93
			c-0.04,0.06-0.41,0.64-1.38,0.64c-0.09,0-0.87,0.01-1.13,0.51c0,0-0.01,0.01-0.01,0.02c-0.03,0.05-0.13,0.21-0.17,0.3
			c-0.01,0.02-0.03,0.03-0.04,0.03c-0.02,0-0.04-0.01-0.05-0.03c-0.04-0.09-0.14-0.24-0.17-0.3c-0.01-0.01-0.02-0.02-0.02-0.02
			c-0.26-0.5-1.05-0.51-1.13-0.51c-0.97,0-1.34-0.57-1.38-0.64c-0.48-0.71-0.03-1.51-0.03-1.52c0.4-0.69,0.36-1.16,0.35-1.25
			c0-0.76-0.48-1.34-0.53-1.4c-0.06-0.06-0.06-0.12-0.06-0.15c0.01-0.07,0.06-0.11,0.08-0.12c0.11-0.07,0.34-0.22,0.44-0.28
			l0.04-0.03c0.01-0.01,0.02-0.01,0.04-0.01c0.03,0,0.05,0.02,0.1,0.05c0.09,0.07,0.27,0.21,0.58,0.21c0.05,0,0.11,0,0.17-0.01
			c0.16-0.03,0.42-0.16,0.43-0.16c0.08-0.04,0.18-0.09,0.23-0.11l0.02-0.01c0.43-0.18,0.79-0.19,0.9-0.19c0.1,0,0.46,0.01,0.89,0.19
			l0.02,0.01c0.04,0.02,0.15,0.07,0.23,0.11c0,0,0.27,0.13,0.43,0.16c0.06,0.01,0.11,0.01,0.17,0.01c0.31,0,0.48-0.13,0.58-0.21
			c0.04-0.03,0.07-0.05,0.1-0.05c0.01,0,0.03,0.01,0.04,0.02c0,0,0.02,0.01,0.05,0.03c0.1,0.06,0.32,0.2,0.44,0.28
			c0.01,0,0.06,0.04,0.07,0.11c0,0.04,0,0.09-0.05,0.15c-0.05,0.06-0.53,0.64-0.53,1.39c-0.01,0.1-0.05,0.57,0.35,1.26
			C148.68,23.44,149.11,24.24,148.63,24.93 M142.9,23.63c0,0.01-0.01,0.02-0.01,0.03c-0.01,0.02-0.02,0.04-0.03,0.06
			c0,0.01-0.01,0.02-0.01,0.02c-0.01,0.01-0.01,0.02-0.02,0.03c-0.01,0.01-0.01,0.02-0.01,0.02c-0.01,0.01-0.03,0.03-0.04,0.04
			c0,0.01-0.01,0.01-0.01,0.01c-0.01,0.01-0.02,0.02-0.03,0.03c0,0-0.01,0.01-0.01,0.01c-0.01,0.01-0.03,0.02-0.05,0.03
			c0,0,0,0-0.01,0c-0.02,0.01-0.03,0.01-0.05,0.02c-0.01,0-0.01,0-0.01,0c-0.02,0-0.04,0.01-0.06,0.01
			c-0.01-0.01-0.01-0.03-0.01-0.05v0c0-0.06,0.07-0.12,0.09-0.19c0.03-0.06,0.02-0.11,0.06-0.16c0.06-0.01,0.12,0.02,0.14-0.04
			c-0.1-0.08-0.1-0.23,0.02-0.36c0.18-0.18,0-0.56,0.03-0.61c0.05,0.04,0.09,0.17,0.11,0.33c0,0.01,0,0.03,0,0.04
			c0,0.02,0,0.04,0,0.05c0,0.01,0,0.03,0,0.04v0.04v0.04c0,0.02,0,0.04,0,0.07c0,0.01,0,0.03,0,0.04c0,0.01,0,0.03,0,0.05
			c0,0.01,0,0.02,0,0.03c0,0.02,0,0.04-0.01,0.07c0,0.01,0,0.03-0.01,0.04c0,0.01-0.01,0.03-0.01,0.04c0,0.01,0,0.02-0.01,0.04
			c0,0.01-0.01,0.03-0.01,0.04c-0.01,0.02-0.01,0.04-0.02,0.06c0,0.01-0.01,0.03-0.01,0.04C142.91,23.6,142.9,23.62,142.9,23.63
			 M148.92,22.84c0.03,0,0.06-0.01,0.08-0.01l0.01,0c0.03,0,0.06,0.01,0.09,0.01c0.02,0,0.08,0.11,0.1,0.22
			c0.01,0.03,0.05,0.19,0.11,0.25c0.05,0.06,0.03,0.16-0.1,0.15h-0.01c-0.14-0.03-0.31-0.25-0.24-0.48
			c-0.04-0.01-0.07-0.01-0.1-0.01h0c-0.02,0-0.04,0.01-0.05,0.01c-0.01,0-0.01,0-0.01,0.01c-0.01,0.01-0.02,0.01-0.03,0.02
			c-0.01,0-0.02,0.01-0.02,0.01c-0.03,0.03-0.05,0.08-0.1,0.08c0.01-0.08,0.05-0.16,0.13-0.21l0,0
			C148.81,22.87,148.86,22.85,148.92,22.84 M142.81,21.95c-0.08,0.02-0.09-0.33-0.51-0.24c-0.23,0.1-0.39,0.04-0.53-0.02
			C142.36,21.36,142.86,21.69,142.81,21.95 M140.77,19.59c-0.27-0.1-0.59-0.14-0.71-0.36c0.4,0.03,0.79,0.04,1.04,0.18
			c0.01,0.01,0.02,0.01,0.03,0.02c0.08,0.05,0.28,0.22,0.38,0.52C141.17,19.74,141.05,19.69,140.77,19.59 M139.9,18.25
			c-0.1-0.01-0.18-0.07-0.27,0c-0.01,0.01-0.14,0.1-0.11,0.23c0.01,0.09-0.12,0.12-0.15,0.07c-0.09-0.21,0.25-0.5,0.33-0.53
			c0.19-0.07,0.34,0.05,0.55,0.08c0.12,0.02,0.25,0,0.35,0.01c0.23,0.02,0.17,0.18,0.13,0.21c-0.19,0.05-0.3-0.09-0.46-0.11
			C140.15,18.19,140.02,18.26,139.9,18.25 M139.58,18.51c0.26,0.1,0.28-0.23,0.34-0.15C140.01,18.5,139.77,18.73,139.58,18.51
			 M138.04,27.86L138.04,27.86L138.04,27.86L138.04,27.86c0.04,0.03,0.09,0.06,0.12,0.09c0.01,0.01,0.02,0.02,0.03,0.03
			c-0.02,0.05-0.07,0.04-0.13,0.02c-0.01,0-0.01,0-0.01,0c-0.05-0.02-0.1-0.06-0.14-0.08c-0.05,0.07,0.04,0.14,0.08,0.2
			c-0.01,0.02-0.03,0.03-0.06,0.04h0c-0.03,0-0.07,0-0.09-0.01h0l0,0c-0.09-0.04-0.1-0.17-0.1-0.24c0-0.06-0.04-0.17-0.15-0.23
			C137.76,27.56,138.01,27.84,138.04,27.86 M150.2,20.01c-0.07,0.12-0.17,0.27-0.33,0.31c-0.29,0.07-0.57-0.17-0.58-0.2
			c-0.01-0.03,0.24,0.12,0.48,0.1c0.18-0.01,0.32-0.14,0.43-0.22C150.2,19.98,150.22,20,150.2,20.01 M149.11,18.61
			c-0.01,0.01-0.03,0.01-0.04,0.01c-0.17-0.09-0.49-0.08-0.72,0.04c-0.17,0.09-0.3,0.26-0.33,0.27c-0.03,0.01,0.28-0.45,0.78-0.5
			C149.11,18.43,149.14,18.59,149.11,18.61 M155.54,22.58c-0.07-1.1-0.15-2.09-0.42-3.01c-0.17-0.56-0.48-1.7-1.22-1.86
			c-0.35-0.07-0.61,0.25-0.6,0.54c0,0.25,0.18,0.37,0.1,0.62c-0.09,0.16-0.18,0.34-0.23,0.52c-0.05,0.18,0.11,0.25,0.06,0.44
			c-0.22-0.03-0.34,0.15-0.67,0.08c-0.3,0.13-0.61,0.07-0.61,0.06c0-0.01,0.01-0.01,0.01-0.01c0.33-0.01,0.63-0.12,0.69-0.26
			c0.07-0.22,0.03-0.56-0.14-0.68c-0.19,0.04-0.28,0.2-0.94,0.16c-0.54-0.03-0.68,0.07-0.76,0.4c-0.03-0.05-0.03-0.1-0.03-0.16
			c0.02-0.18,0.2-0.29,0.42-0.31c0.05-0.08,0.05-0.14,0.05-0.23c-0.1-0.01-0.15-0.01-0.27,0.01c-0.26,0.04-0.62,0.19-0.71,0.45
			c-0.01,0.03-0.02,0.08-0.02,0.14c0,0.04,0.01,0.08,0.02,0.11c0.01,0.03,0.02,0.06,0.03,0.08c0.08,0.18,0.29,0.28,0.72,0.3
			c0.01,0,0.02,0.01,0.02,0.01c0,0.02-0.09,0.04-0.2,0.02c0,0-0.4,0-0.59-0.21c-0.01,0.01-0.03,0.03-0.03,0.04
			c-0.11,0.11-0.31,0.22-0.49,0.23c-0.2,0.01-0.42-0.12-0.49-0.22c-0.26-0.35,0.08-0.96,0.07-1.19c-0.02-0.61-0.84-0.34-1.14-0.18
			c-0.36,0.19-0.65,0.5-0.89,0.79c-0.13,0.16-0.27,0.36-0.35,0.53c0.11,0.05,0.42,0.19,0.66,0.19l0.01,0c0.01,0,0.04,0,0.08,0
			c0.12,0,0.36-0.02,0.53-0.17c0.02-0.02,0.09-0.07,0.19-0.07c0.08,0,0.15,0.03,0.21,0.09c0.04,0.04,0.56,0.45,0.73,0.57
			c0.03,0.01,0.07,0.06,0.08,0.13c0.01,0.04,0,0.11-0.07,0.18c-0.04,0.04-0.3,0.35-0.47,0.77v0c-0.03,0.06-0.05,0.12-0.07,0.19
			c-0.06,0.22-0.11,0.57,0.2,0.68c0,0,0.34,0.09,0.31-0.48c0,0,0.06,0.36,0.32,0.35c0.11-0.01,0.21-0.12,0.2-0.36l0,0
			c-0.02-0.24-0.02-0.5,0.02-0.8c0-0.01,0.01-0.02,0.01-0.03c0,0.01,0.01,0.03,0.03,0.15c0.01,0.15-0.09,1.46,0.99,2.35
			c0,0-0.46-0.22-0.77-0.78c-0.18,0.11-0.43,0.34-0.32,0.83c0.06,0.17,0.18,0.33,0.27,0.38c0.01,0,0.01,0.01,0.01,0.02
			c0,0.02-0.06,0.07-0.16-0.03v0c-0.01-0.01-0.03-0.03-0.05-0.05c-0.04-0.06-0.06-0.11-0.09-0.16c-0.13-0.11-0.24-0.22-0.35-0.34
			l0,0c-0.09-0.18-0.04-0.7-0.55-0.7c0,0-0.02,0-0.05,0h0c-0.02,0-0.05,0-0.09,0.01c-0.01,0-0.01,0-0.02,0
			c-0.13-0.46-0.1-0.75-0.09-0.8c0.1-0.66,0.58-1.21,0.63-1.27c0.02-0.02,0.04-0.06,0.04-0.09c0-0.03-0.03-0.04-0.03-0.05l0,0
			c-0.18-0.12-0.69-0.53-0.75-0.57l0-0.01c-0.04-0.03-0.08-0.06-0.13-0.06c-0.06,0-0.11,0.04-0.11,0.04
			c-0.21,0.17-0.47,0.2-0.61,0.2c-0.05,0-0.08,0-0.1-0.01h-0.01c-0.3-0.01-0.67-0.18-0.74-0.22c-0.51-0.21-0.9-0.22-0.97-0.22
			c-0.07,0-0.46,0.01-0.97,0.22c-0.07,0.04-0.45,0.21-0.74,0.22h0c-0.01,0-0.05,0.01-0.1,0.01c-0.14,0-0.41-0.03-0.61-0.2l0,0
			c0,0-0.05-0.04-0.11-0.04c-0.05,0-0.09,0.02-0.13,0.06l-0.01,0.01c-0.06,0.05-0.57,0.46-0.74,0.57l0,0c0,0-0.02,0.02-0.03,0.05
			c0,0.03,0.02,0.07,0.04,0.09c0.05,0.06,0.52,0.61,0.63,1.27c0.01,0.03,0.02,0.13,0.01,0.29c-0.04-0.14-0.09-0.26-0.12-0.35
			c-0.02-0.07-0.04-0.14-0.07-0.19l0,0c-0.07-0.11-0.18-0.2-0.29-0.26c-0.09-0.05-0.19-0.07-0.28-0.13
			c-0.14-0.09-0.28-0.19-0.37-0.37c-0.01-0.34-0.18-0.6-0.18-0.6c0.05-0.02,0.26,0.13,0.27,0.5c0.24-0.26,0.37-0.63,0.45-1.04
			c0.19-0.25,0.7-0.15,0.9-0.12c0.05,0.01,0.14,0.02,0.18,0.06c0.06,0.04,0.07,0.13,0.15,0.16c0.08,0.03,0.17,0.01,0.27,0
			c0.03,0.04,0.05,0.08,0.07,0.13c0.03,0,0.06,0,0.06,0l0,0h0.01c0.28,0,0.66-0.19,0.7-0.21l0.01-0.01
			c0.01-0.01,0.03-0.01,0.04-0.01c-0.11-0.14-0.28-0.18-0.43-0.2c-0.19-0.03-0.3-0.19-0.48-0.23c-0.05-0.01-0.21-0.04-0.26-0.02
			c-0.41,0.05-0.7-0.1-1.08-0.13c-0.36-0.03-0.38,0.22-0.5,0.43c-0.05,0.08-0.11,0.17-0.17,0.22c-0.1,0.1-0.22,0.1-0.34,0.19
			c0,0-0.01-0.01-0.02-0.01c-0.02-0.13-0.08-0.33-0.17-0.46c0,0,0-0.01,0-0.01c-0.01-0.02-0.02-0.03-0.02-0.04
			c-0.2-0.31-0.43-0.55-0.86-0.65c-0.08-0.03-0.1-0.04-0.15-0.08c-0.07-0.06-0.02-0.12,0-0.13c0.13-0.07,0.34-0.05,0.48-0.11
			c0.35-0.16,0.23-0.46,0.09-0.48c-0.18-0.03-0.49-0.12-0.56-0.15c-0.08-0.05-0.14-0.2-0.27-0.25c-0.1-0.03-0.19-0.03-0.29-0.02
			c-0.08,0.01-0.14,0.07-0.2,0.07c0.08-0.11,0.22-0.17,0.39-0.18c-0.15-0.04-0.1-0.29-0.24-0.35c-0.06-0.01-0.15,0.02-0.25,0.07
			c-0.01-0.08-0.06-0.34-0.2-0.43c-0.12-0.07-0.16,0.04-0.15,0.1c0.01,0.06,0.18,0.14,0.21,0.4c-0.03,0.02-0.06,0.04-0.09,0.06
			c-0.02-0.11-0.07-0.28-0.19-0.35c-0.12-0.07-0.16,0.03-0.15,0.1c0.01,0.06,0.16,0.12,0.2,0.35c-0.04,0.03-0.08,0.07-0.12,0.1
			c-0.23-0.06-0.29-0.23-0.35-0.24c-0.07-0.01-0.18,0.02-0.12,0.14c0.06,0.12,0.23,0.19,0.34,0.23c-0.02,0.03-0.05,0.05-0.07,0.08
			c-0.27-0.06-0.33-0.24-0.39-0.25c-0.07-0.01-0.18,0.02-0.12,0.14c0.07,0.16,0.34,0.23,0.41,0.24c-0.05,0.08-0.07,0.14-0.06,0.19
			c-0.21-0.02-0.59,0.09-0.51,0.34c0.07,0.05,0.32-0.15,0.55-0.04c0.15,0.23,0.39,0.25,0.45,0.29c0.08,0.07,0.1,0.19,0.14,0.3
			c0.07,0.2,0.21,0.36,0.33,0.54c0.13,0.2,0.26,0.4,0.4,0.58c0.02,0.05,0.03,0.1,0.02,0.17c-0.15,0.25-0.62,0.54-0.81,0.71
			c-0.19,0.18-2.01,1.56-2.24,2.17c-0.05,0.14-0.08,0.31-0.07,0.49c-0.11,0.06-0.3,0.02-0.36-0.04c-0.12-0.14,0.13-0.28,0.06-0.47
			c-0.03-0.07-0.12-0.1-0.2-0.07c-0.13,0.05-0.16,0.32-0.1,0.48c0.02,0.05,0.09,0.11,0.04,0.14c-0.07,0.03-0.11-0.04-0.11-0.14
			c-0.04,0.03-0.07,0.09-0.05,0.16c0.04,0.13,0.2,0.14,0.25,0.17c-0.01,0.06-0.1,0.09-0.16,0.03c-0.1,0.15,0.01,0.2,0.04,0.21
			c0.11,0.02,0.23-0.08,0.3-0.09c0.03,0.07-0.02,0.1-0.13,0.13c0.18,0.22,0.34-0.16,0.54-0.11c0.06,0.01,0.63,0.55,0.54,0.95
			c-0.01,0.02-0.03,0.08-0.04,0.1c-0.13,0.15-0.34,0.28-0.48,0.42c-0.3,0.19,0.29,1.39,0.24,2c-0.04,0.24,0.21,0.19,0.34,0.58
			c-0.15,0-0.29,0.04-0.36,0.15c0,0-0.01,0.01-0.02,0.03l0,0c-0.02,0.04-0.04,0.09-0.04,0.15c0,0.17,0.14,0.3,0.3,0.3
			c0.17,0,0.3-0.13,0.3-0.3c0-0.02,0-0.03-0.01-0.04c0.07,0,0.15,0.01,0.24,0.05l0.26,0.14c0,0-0.93,0.78-2.44,0.33
			c0,0-0.69-0.22-0.49-0.83c0,0,0.04-0.1,0.13-0.16c0.02,0.08,0.07,0.15,0.14,0.2c0.06,0.04,0.12,0.06,0.2,0.06
			c0.19,0,0.34-0.15,0.34-0.34c0-0.1-0.04-0.18-0.1-0.24c-0.01-0.01-0.03-0.03-0.04-0.04c0,0,0,0-0.01,0c0,0,0,0-0.01-0.01
			c-0.1-0.07-0.26-0.11-0.49-0.05c0,0-0.66,0.19-0.42,0.91c0,0-0.45-0.1-0.62,0.1c0,0-0.06,0.06-0.05,0.17v0v0
			c0,0.04,0.01,0.09,0.05,0.14c0.05,0.07,0.12,0.11,0.21,0.11c0.08,0,0.15-0.04,0.2-0.09v0c0.02-0.03,0.06-0.05,0.16,0.03
			c0,0,0.62,0.68,1.53,0.6c0,0,0.03,0.47,0.34,0.55c0,0,0.03,0.01,0.05,0.01c0.09,0,0.16-0.07,0.16-0.16c0-0.09-0.07-0.16-0.16-0.16
			c0,0-0.01,0-0.02,0c0-0.02-0.04-0.15-0.02-0.25c0,0,1-0.13,1.67-0.68c0,0,0.46,0.13,0.76,0.15c0,0,0.04,0.1-0.16,0.13
			c0,0-0.26-0.01-0.25,0.08c0,0-0.02,0.1,0.19,0.09c0,0-0.02,0.1,0.14,0.19c0,0,0.11,0.06,0.05,0.13c0,0-0.2,0.11-0.14,0.24
			c0,0,0.05,0.16,0.33,0.12c0,0,0.09,0,0.02,0.08c0,0-0.14,0.15,0.1,0.27c0,0,0.18,0.1,0.3-0.09c0,0,0.03-0.08,0.14-0.02
			c0,0,0.59,0.27,0.9-0.17c0,0,0.02-0.07,0.11,0.05c0,0,0.31,0.37,1.14,0.4c0.05,0.1,0.16,0.16,0.27,0.16
			c0.15,0,0.28-0.11,0.31-0.26c0.1,0,0.47-0.03,0.86-0.29c0,0,0.14-0.09,0.29-0.16c0.01,0.23,0.2,0.42,0.44,0.42
			s0.44-0.19,0.44-0.43c0-0.21-0.16-0.39-0.36-0.43c-0.01,0-0.29-0.08-0.69,0.16c0,0-0.33,0.23-0.4,0.23c0,0,0.08-0.37,0.14-0.78
			c-0.06-0.01-0.12-0.01-0.18-0.02c-0.05,0.38-0.14,0.83-0.29,0.85l-0.22,0.05c-0.01-0.03-0.03-0.05-0.04-0.08
			c-0.03-0.05-0.1-0.11-0.23-0.09c0,0-0.01,0-0.02,0.01c-0.1,0.03-0.18,0.11-0.18,0.22c-0.05,0.01-0.42,0.07-0.62-0.08
			c0,0,0.36-0.13,0.41-0.26c0,0,0.11-0.21-0.25-0.41c0,0-0.27-0.16-0.34,0.01c0,0-0.03,0.08,0.09,0.18c0,0,0.13,0.14-0.12,0.12
			c0,0-0.17-0.02-0.22-0.08c0,0,0.05-0.46,0.15-0.78c-0.1-0.02-0.19-0.05-0.29-0.07c-0.04,0.1-0.07,0.21-0.1,0.33
			c0,0-0.01,0.27-0.11,0.34c0,0-0.35-0.29-0.2-0.79c-0.11-0.03-0.22-0.07-0.32-0.11c-0.01,0.24,0.05,0.63,0.36,1.19
			c0,0-0.29,0.38-0.58,0.18c0,0-0.42-0.27-0.15-0.51c0,0,0.18-0.15,0.26,0.04c-0.1,0.01-0.17,0.08-0.17,0.18
			c0,0.1,0.08,0.18,0.18,0.18c0.09,0,0.17-0.07,0.17-0.17c0.01-0.07,0.01-0.25-0.14-0.38c0,0-0.15-0.16-0.4-0.11
			c0,0,0.23-0.31,0.25-0.56c0,0,0-0.05,0.02-0.1c-0.07-0.02-0.13-0.05-0.2-0.08c-0.02,0.25-0.09,0.72-0.44,0.59
			c0,0,0.22-0.37,0.37-0.62c-0.14-0.05-0.28-0.11-0.41-0.17c-0.01,0-0.02-0.01-0.04-0.01c0.02,0.1,0.05,0.37-0.09,0.52
			c0,0-0.17,0.16-0.47-0.07c0,0,0.4-0.33,0.52-0.46c-0.08-0.03-0.21-0.07-0.33-0.07h-0.11c-0.01,0.01-0.01,0.01-0.02,0.02
			c0,0-0.26,0.19-0.44,0.26c0,0-0.05,0.03-0.1-0.02c0,0-0.33-0.38-0.08-0.78c0,0,0.15-0.36,0.46-0.28c0,0,0.09,0,0.14,0.12
			c0,0-0.3,0.01-0.27,0.22c0,0,0,0.22,0.28,0.21c0,0,0.38-0.04,0.29-0.5c0,0-0.07-0.28-0.28-0.28c0,0,0.12-0.15,0.03-0.21
			c0,0-0.09-0.09-0.29,0.06c0,0-0.05,0.1-0.3,0.05c0,0-0.17-0.07-0.26,0.06c0,0-0.04,0.02-0.04,0.2c0,0,0.02,0.07-0.09,0.26
			c0,0-0.06,0.12-0.07,0.32c-0.07-0.06-0.16-0.1-0.25-0.12c-0.13-0.13-0.13-0.74-0.26-1.03c-0.03-0.07,0.06-0.38,0.06-0.71
			c0.92-0.2,1.26-0.9,1.36-1.21c0.14-0.51-0.05-1.02-0.07-1.16c0-0.02,0.01-0.02,0.02,0c0.04,0.08,0.07,0.16,0.1,0.24
			c0.44,0.03,0.75-0.04,0.96-0.11c0.01-0.01,0.03-0.01,0.03-0.01c0.01-0.01,0.03-0.01,0.05-0.02c0.04-0.02,0.07-0.03,0.11-0.05
			c0.02,0,0.03-0.01,0.04-0.02c0.64-0.33,0.93-0.86,1.11-1.16c-0.09-0.02-0.37-0.11-0.46-0.25c0.24,0.02,0.42,0.12,0.65,0.12
			c0.35,0,0.58-0.19,0.96-0.15c0,0.02,0.05,0.18,0.3,0.28c0.01,0.22,0.02,0.4,0.09,0.58c0.02,0.05,0.03,0.07,0.03,0.07
			s-0.29,0.22-0.21,0.41c0.02,0.05,0.04,0.1,0.06,0.15c-0.01,0-0.03,0-0.04-0.01c-0.04-0.02-0.09,0.06-0.16,0.16
			c-0.03,0.05-0.19,0.37-0.07,0.39c0.02,0.01,0.05,0.01,0.07,0.01c-0.06,0.32-0.06,0.75,0.21,1.14l0,0.01
			c0.02,0.03,0.43,0.71,1.54,0.71h0.02c0.11,0,1.09,0.02,1.44,0.67c0.02,0.04,0.1,0.15,0.18,0.15c0.09,0,0.16-0.11,0.18-0.15
			c0.35-0.65,1.33-0.67,1.44-0.67h0.01c1.12,0,1.53-0.68,1.55-0.71l0-0.01c0.14-0.2,0.2-0.4,0.23-0.6c0.22-0.12,0.21-0.61,0.21-0.7
			c0.06,0.09,0.19,0.33,0.46,0.4c-0.04,0.23-0.03,0.62,0.22,0.67c0.07,0.01,0.14-0.11,0.12-0.19c0.21,0.62,0.04,0.99,0.2,1.04
			c0.21,0,0.22-0.36,0.24-0.37c0.02,0.03,0.08,0.14,0.09,0.31c0,0.19-0.03,0.38,0.06,0.41c0.29,0.05,0.15-0.79,0.37-0.71
			c-0.06,0.37,0,0.58,0.15,0.64c-0.01,0.17-0.03,0.34-0.1,0.34c-0.41,0.09-0.79-0.23-1.15-0.14c-0.02-0.01-0.04-0.02-0.04-0.02
			c-0.66-0.36-1.08-0.09-1.12-0.12c-0.19-0.17-0.26,0.09-0.31,0.06c-0.35-0.19-0.54,0.14-0.63,0.15c-0.08,0.01-0.23-0.18-0.39,0.22
			c-0.07,0.17-0.46,0.25-0.49,0.26c-0.15,0.02-0.19-0.09-0.19-0.09c-0.02-0.05-0.03-0.08-0.05-0.11c-0.01-0.03-0.03-0.05-0.06-0.08
			c-0.05-0.05-0.11-0.06-0.16-0.05c-0.11,0.01-0.2,0.1-0.2,0.22c0,0.05,0.02,0.1,0.05,0.13c0.01,0.01,0.05-0.04,0.1-0.04
			c0.08,0,0.16,0.07,0.16,0.15v0c0.01,0.18-0.26,0.35-0.26,0.35c-0.16,0.14-0.35-0.05-0.35-0.05c-0.11-0.09-0.18-0.1-0.18-0.1
			c-0.12,0.01-0.17,0.13-0.17,0.13s-0.05-0.12-0.17-0.13c0,0-0.07,0.01-0.19,0.1c0,0-0.2,0.19-0.35,0.05c0,0-0.27-0.18-0.26-0.35v0
			c0-0.08,0.07-0.15,0.15-0.15c0.05,0,0.09,0.05,0.1,0.04c0.03-0.04,0.04-0.08,0.04-0.13c0-0.11-0.09-0.21-0.21-0.22
			c-0.05-0.01-0.1,0-0.15,0.05c-0.02,0.02-0.04,0.05-0.06,0.08c-0.02,0.03-0.03,0.07-0.05,0.11c0,0-0.04,0.11-0.19,0.09
			c-0.03-0.01-0.42-0.08-0.49-0.26c-0.16-0.39-0.31-0.21-0.39-0.22c-0.09-0.01-0.28-0.35-0.63-0.15c-0.05,0.03-0.13-0.23-0.31-0.06
			c-0.04,0.03-0.37-0.17-0.9,0.02c-0.03-0.06-0.2-0.1-0.25-0.11c-0.11-0.03-0.2-0.12-0.27-0.15c-0.15-0.07-0.39-0.03-0.56-0.05
			c-0.07-0.01-0.16-0.04-0.22-0.08c-0.22-0.13-0.47-0.3-0.61-0.5c-0.02-0.03-0.08-0.11-0.09-0.12c-0.07-0.09-0.1-0.15-0.15-0.29
			c-0.08-0.27,0.04-0.56,0.08-0.83c0.02-0.13,0.02-0.18,0.03-0.26c-0.21,0.05-0.49,0.06-0.83-0.04c0.09,0.29,0.1,0.6,0.07,0.84
			c0.13,0.1,0.21,0.26,0.22,0.34c0.02,0.14-0.05,0.28,0.04,0.39c0.12,0.17,0.38,0.32,0.54,0.43c0.05,0.04,0.8,0.61,0.9,0.63
			c0.1,0.02,0.17-0.06,0.27-0.04c0.03,0.01,0.05,0.03,0.08,0.05c0,0,0.06,0.07,0.16,0.13c-0.23,0.14-0.51,0.31-0.72,0.41
			c0,0-0.34,0.18-0.18,0.19c0,0,0.23-0.01,0.26,0.04c0,0-0.1,0.04-0.25,0.11c0.35,0.13,0.71,0.24,1.08,0.34
			c0.24-0.23,0.54-0.48,0.83-0.59c0,0,0.42,0.02,0.56-0.29c0.04-0.1,0.22,0.18,0.59-0.03c0.03-0.02,0.09,0.08,0.19,0.11
			c0.03,0.01-0.15,0.04-0.11,0.2c0.01,0.02-0.3,0-0.4,0.17c-0.03,0.05-0.68,0.04-1.26,0.53c0.11,0.03,0.22,0.05,0.33,0.07
			c0.19-0.15,0.43-0.24,0.69-0.23c0,0,0.36,0.02,0.51,0.44c0.22,0.03,0.45,0.06,0.67,0.08c0,0,0,0,0,0
			c0.06-0.03,0.37-0.18,0.23-0.36c0,0-0.07-0.09-0.2,0.03c0,0-0.08,0.08-0.12-0.04c0,0-0.01-0.07-0.04-0.12c0,0-0.06-0.09,0.06-0.05
			c0,0,0.11,0.03,0.22,0.02c0.11-0.01,0.2-0.1,0.2-0.21c0-0.12-0.08-0.23-0.2-0.23c0,0-0.02,0.01-0.02,0.02
			c0.02,0.01,0.03,0.03,0.03,0.06c0,0.04-0.03,0.09-0.08,0.08c-0.13-0.03-0.09-0.28,0.08-0.29c0,0,0.15,0.01,0.28,0.16
			c0,0,0.3,0.44,0.57,0.54c0.02,0.01-0.05,0.16,0.12,0.21c0.02,0.01,0,0.14,0.17,0.13c0,0,0.04,0.06,0.08,0.15
			c0.15,0,0.31,0.01,0.47,0.01c0.16,0,0.31,0,0.47-0.01c0.04-0.09,0.08-0.15,0.08-0.15c0.18,0.01,0.16-0.12,0.18-0.13
			c0.17-0.05,0.11-0.21,0.12-0.21c0.27-0.1,0.57-0.54,0.57-0.54c0.13-0.15,0.28-0.16,0.28-0.16c0.18,0.01,0.21,0.26,0.08,0.29
			c-0.04,0.01-0.08-0.03-0.08-0.08c0-0.03,0.01-0.05,0.03-0.06c0-0.01-0.02-0.02-0.02-0.02c-0.12,0-0.2,0.11-0.2,0.23
			c0,0.11,0.09,0.21,0.2,0.21c0.11,0.02,0.22-0.02,0.22-0.02c0.12-0.04,0.06,0.05,0.06,0.05c-0.03,0.06-0.04,0.12-0.04,0.12
			c-0.03,0.12-0.12,0.04-0.12,0.04c-0.13-0.12-0.2-0.03-0.2-0.03c-0.14,0.18,0.17,0.34,0.23,0.36c0,0,0,0,0,0
			c0.23-0.02,0.45-0.05,0.67-0.08c0.15-0.42,0.51-0.44,0.51-0.44c0.27-0.02,0.5,0.08,0.69,0.23c0.11-0.02,0.22-0.05,0.33-0.07
			c-0.58-0.49-1.23-0.48-1.26-0.53c-0.1-0.17-0.41-0.15-0.4-0.17c0.04-0.16-0.15-0.19-0.11-0.2c0.1-0.03,0.16-0.13,0.19-0.11
			c0.37,0.21,0.55-0.07,0.59,0.03c0.14,0.31,0.56,0.29,0.56,0.29c0.29,0.11,0.59,0.36,0.83,0.59c0.34-0.09,0.67-0.2,0.99-0.31
			c0,0,0-0.01-0.01-0.01c0-0.02-0.01-0.03-0.02-0.05c0-0.01,0-0.01-0.01-0.02l0,0c-0.01-0.03-0.03-0.06-0.05-0.09h0
			c-0.09-0.14-0.21-0.28-0.25-0.33l0,0c-0.01-0.01-0.01-0.01-0.01-0.01c0,0,0.24-0.37,0.4-0.12c0.01,0.03-0.01,0.12-0.17,0.12
			c0,0,0.18,0.28,0.22,0.47c0,0,0,0,0,0c0.08-0.03,0.13-0.05,0.16-0.05c0.01-0.01,0.03-0.01,0.04-0.01c-0.1-0.19-0.24-0.29-0.2-0.35
			c0.04-0.02,0.17,0.05,0.24-0.06c0.02-0.03,0.04-0.16,0.05-0.31c0.1,0.05,0.21,0.06,0.24,0.06c0.25,0,0.34-0.38,0.28-0.51
			c0.04-0.02,0.18-0.14,0.2-0.11c0.08,0.18,0.48,0.37,0.45-0.03c0.07,0.19,0.12,0.42,0.34,0.4c0.16-0.04,0.06-0.32,0.12-0.32
			c0.05,0.08,0.12,0.4,0.36,0.33c0.07-0.03,0.13-0.08,0.13-0.19c0.01-0.31-0.87-1.93-0.95-2.63c-0.01,0-0.03-0.01-0.04-0.02
			c-0.09-0.04-0.09-0.18-0.08-0.28c0-0.01,0-0.01,0-0.02c-0.11-0.02-0.27-0.11-0.3-0.41c0-0.27,0.12-0.4,0.14-0.4
			c0.01,0,0.01,0.02,0.01,0.03c-0.07,0.21-0.12,0.46,0.04,0.6c0.03,0.03,0.09,0.05,0.15,0.06c0.04-0.09,0.11-0.13,0.12-0.13
			c0.01,0,0.01,0.01,0,0.02c-0.08,0.14-0.08,0.34,0,0.43c0.04,0.04,0.11,0.07,0.16,0.07c0.25-0.09,0.37-0.56,0.43-0.71
			c0.17,0.04-0.26,0.99,0.07,1.19c0.13-0.01,0.21-0.17,0.26-0.31c0.11,0.28-0.35,0.87-0.02,1c0.2,0.05,0.27-0.46,0.28-0.4
			c0.06,0.79-0.35,1.17-0.09,1.29c0.22,0.1,0.3-0.54,0.3-0.46c-0.01,0.84-0.43,1.07-0.25,1.22c0.21,0.08,0.36-0.42,0.35-0.3
			c-0.02,0.75-0.4,0.95-0.23,1.19c0.19,0.27,0.55-0.49,0.57-0.35c0.02,0.18-0.41,1.05-0.16,1.11c0.21,0.05,0.28-0.25,0.3-0.31
			C155.56,25.39,155.59,23.28,155.54,22.58"/>
	</g>
</g>
</svg>
