<?xml version="1.0" encoding="utf-8"?>
<!-- Generator: Adobe Illustrator 23.0.3, SVG Export Plug-In . SVG Version: 6.00 Build 0)  -->
<svg version="1.1" id="Layer_1" xmlns="http://www.w3.org/2000/svg" xmlns:xlink="http://www.w3.org/1999/xlink" x="0px" y="0px"
	 viewBox="0 0 461.82 84.32" style="enable-background:new 0 0 461.82 84.32;" xml:space="preserve">
<style type="text/css">
	.st0{fill:url(#SVGID_1_);}
	.st1{fill:#FFFFFF;}
	.st2{fill:#673794;}
</style>
<g>
	<g>
		<linearGradient id="SVGID_1_" gradientUnits="userSpaceOnUse" x1="1.8622" y1="35.3752" x2="74.6459" y2="35.3752">
			<stop  offset="0" style="stop-color:#009898"/>
			<stop  offset="0.5188" style="stop-color:#306C99"/>
			<stop  offset="0.6399" style="stop-color:#376598"/>
			<stop  offset="0.8173" style="stop-color:#4B5197"/>
			<stop  offset="1" style="stop-color:#663694"/>
		</linearGradient>
		<path class="st0" d="M66.41,64.75H10.1c-4.55,0-8.24-3.69-8.24-8.24V14.24C1.86,9.69,5.55,6,10.1,6h56.3
			c4.55,0,8.24,3.69,8.24,8.24v42.27C74.65,61.06,70.96,64.75,66.41,64.75z"/>
	</g>
	<g>
		<path class="st1" d="M0,43.48v-2.63c0-1.46,0.93-2.63,2.08-2.63H18.8l7.46-20.13c0.56-1.51,1.74-2.44,3.11-2.25
			c1.31,0.15,2.4,1.33,2.73,2.94L41.19,63l9.76-59.85C51.25,1.37,52.46,0.06,53.9,0c0.03,0,0.07,0,0.1,0h0c1.31,0,2.65,1.3,3,2.9
			l7.68,35.3h16.32c1.15,0,2.08,1.18,2.08,2.63v2.63c0,1.46-0.93,2.63-2.08,2.63H62.32c-1.4,0-2.63-1.19-3.01-2.9l-4.87-22.4
			l-9.85,60.36c-0.29,1.8-1.53,3.1-2.97,3.15c-0.03,0-0.06,0-0.08,0c-1.42,0-2.66-1.21-3.01-2.95L28.24,31.32l-4.65,12.52
			c-0.51,1.39-1.61,2.27-2.82,2.27H2.08C0.93,46.11,0,44.93,0,43.48z"/>
	</g>
</g>
<g>
	<path class="st2" d="M147.79,30.4v6.1H86.91v-6.1H147.79z M147.79,45.61v6.1H92.99v9.14h54.81v6.07H86.91V45.61H147.79z"/>
	<path class="st2" d="M203.28,30.4c5.04,0,9.34,1.79,12.92,5.36c3.57,3.57,5.36,7.88,5.36,12.92c0,5.02-1.79,9.32-5.36,12.89
		c-3.57,3.57-7.88,5.36-12.92,5.36h-42.6V42.58h6.08v18.28h36.53c3.37,0,6.24-1.19,8.6-3.57c2.38-2.38,3.57-5.25,3.57-8.6
		c0-3.37-1.19-6.24-3.57-8.63c-2.37-2.37-5.23-3.55-8.6-3.55h-42.6v-6.1H203.28z"/>
	<path class="st2" d="M234.45,30.4h6.07v36.53h-6.07V30.4z"/>
	<path class="st2" d="M296.01,30.4c5.04,0,9.34,1.79,12.92,5.36c3.57,3.57,5.36,7.88,5.36,12.92c0,5.02-1.79,9.32-5.36,12.89
		c-3.57,3.57-7.88,5.36-12.92,5.36h-42.6V42.58h6.07v18.28h36.53c3.37,0,6.24-1.19,8.6-3.57c2.38-2.38,3.57-5.25,3.57-8.6
		c0-3.37-1.19-6.24-3.57-8.63c-2.37-2.37-5.23-3.55-8.6-3.55h-42.6v-6.1H296.01z"/>
	<path class="st2" d="M337.82,66.93c-2.93,0-5.44-1.04-7.53-3.11c-2.08-2.09-3.11-4.6-3.11-7.53V41.04c0-2.93,1.04-5.43,3.11-7.5
		c2.09-2.09,4.6-3.14,7.53-3.14h39.57c2.94,0,5.45,1.05,7.53,3.14c2.09,2.08,3.14,4.58,3.14,7.5v15.24c0,2.93-1.05,5.44-3.14,7.53
		c-2.08,2.08-4.59,3.11-7.53,3.11H337.82z M337.82,36.5c-1.26,0-2.33,0.44-3.22,1.33c-0.9,0.9-1.35,1.97-1.35,3.22v15.24
		c0,1.26,0.45,2.33,1.35,3.22c0.88,0.9,1.96,1.35,3.22,1.35h39.57c1.26,0,2.34-0.45,3.24-1.35c0.88-0.88,1.33-1.96,1.33-3.22V41.04
		c0-1.24-0.44-2.31-1.33-3.22c-0.9-0.88-1.98-1.33-3.24-1.33H337.82z"/>
	<path class="st2" d="M461.82,66.93h-42.63c-5.02,0-9.32-1.79-12.89-5.36c-3.57-3.57-5.36-7.87-5.36-12.89
		c0-5.04,1.79-9.34,5.36-12.92c3.57-3.57,7.87-5.36,12.89-5.36h42.63v6.1h-42.63c-3.35,0-6.22,1.18-8.6,3.55
		c-2.38,2.38-3.57,5.26-3.57,8.63c0,3.35,1.19,6.22,3.57,8.6c2.38,2.38,5.25,3.57,8.6,3.57h42.63V66.93z"/>
</g>
</svg>
