<?xml version="1.0" encoding="utf-8"?>
<!-- Generator: Adobe Illustrator 23.0.1, SVG Export Plug-In . SVG Version: 6.00 Build 0)  -->
<svg version="1.1" id="Layer_1" xmlns="http://www.w3.org/2000/svg" xmlns:xlink="http://www.w3.org/1999/xlink" x="0px" y="0px"
	 viewBox="0 0 52.8 60" style="enable-background:new 0 0 52.8 60;" xml:space="preserve">
<style type="text/css">
	.st0{fill:#FFFFFF;}
</style>
<path class="st0" d="M36.4,39l16.4-9.5v-19l-16.4,9.5"/>
<path class="st0" d="M18.2,10.6l16.4,9.5V39l-16.4-9.5"/>
<path class="st0" d="M0,18.9l16.4,9.5V9.5L0,0 M18.2,50.5L34.6,60V41.1l-16.4-9.5"/>
</svg>
